Date, Sleep Time, Wake Time, Hours,Note
02/09/13,01:28,08:05,6.61,
02/08/13,06:36,07:05,0.48,
02/08/13,05:35,05:35,0.0,
02/08/13,05:10,05:10,0.0,
02/08/13,05:05,05:06,0.01,
02/08/13,00:28,04:54,4.43,
02/07/13,08:36,09:00,0.40,
02/07/13,01:46,08:36,6.83,
02/06/13,00:37,08:01,7.4,
02/05/13,07:29,07:41,0.20,
02/05/13,01:45,07:29,5.71,
02/04/13,00:47,08:00,7.23,
02/03/13,01:54,10:26,8.53,
02/02/13,02:46,09:22,6.59,
02/01/13,01:23,08:31,7.13,
01/31/13,07:05,09:01,1.93,
01/31/13,01:54,07:02,5.13,
01/30/13,01:32,08:54,7.35,
01/29/13,01:12,07:34,6.36,
01/28/13,05:57,07:00,1.04,
01/28/13,00:11,05:47,5.61,
01/27/13,01:02,07:50,6.79,
01/26/13,08:56,08:56,0.0,
01/26/13,05:56,08:50,2.89,
01/26/13,01:05,05:44,4.65,
01/25/13,01:35,08:30,6.92,
01/24/13,23:48,07:00,7.2,
01/23/13,00:19,07:00,6.68,
01/22/13,00:17,06:33,6.26,
01/21/13,00:00,06:46,6.75,
01/20/13,23:45,07:54,8.14,
01/19/13,04:00,06:00,2.0,Kari sleep over.
01/18/13,00:49,08:03,7.23,
01/17/13,06:01,06:01,0.0,
01/17/13,05:49,05:49,0.0,
01/17/13,23:31,05:44,6.21,
01/16/13,00:10,06:56,6.76,
01/15/13,07:14,07:16,0.03,
01/15/13,03:50,06:35,2.75,
01/15/13,03:40,03:40,0.0,
01/15/13,22:56,03:34,4.64,
01/14/13,11:00,12:20,1.33,Singapore to London
01/14/13,05:00,07:30,2.5,at Changi
01/14/13,00:00,03:00,3.0,Tokyo to Singapore
01/13/13,02:52,02:52,0.0,
01/13/13,02:13,02:13,0.0,
01/13/13,20:52,02:03,5.18,
01/12/13,19:40,02:32,6.87,
01/11/13,02:09,03:22,1.22,
01/11/13,19:48,01:58,6.16,
01/10/13,19:11,02:18,7.11,
01/09/13,01:30,02:35,1.08,
01/09/13,19:47,01:19,5.53,
01/08/13,19:21,19:37,0.27,
01/08/13,02:12,02:12,0.0,
01/08/13,02:00,02:00,0.0,
01/08/13,19:57,01:56,5.98,
01/07/13,02:24,02:24,0.0,
01/07/13,19:38,02:20,6.69,
01/06/13,16:55,00:15,7.33,
01/05/13,01:18,01:26,0.13,
01/05/13,23:57,01:08,1.17,
01/04/13,18:18,23:47,5.48,
01/04/13,17:04,00:57,7.88,
01/03/13,17:11,01:32,8.34,
01/01/13,18:44,23:30,4.76,travel: tokyo to kusatsu onsen
01/01/13,18:05,02:07,8.02,
12/31/12,17:09,01:24,8.25,
12/29/12,22:02,22:30,0.46,
12/29/12,16:11,22:00,5.81,
12/29/12,18:57,02:09,7.19,
12/28/12,01:16,01:16,0.0,
12/28/12,18:47,01:09,6.36,
12/27/12,01:05,03:03,1.97,
12/27/12,00:04,00:55,0.85,
12/26/12,17:13,21:30,4.29,
12/26/12,17:02,17:02,0.0,
12/26/12,22:04,01:00,2.93,
12/25/12,17:22,21:30,4.14,
12/25/12,18:00,01:17,7.28,
12/24/12,00:43,01:49,1.10,
12/24/12,19:14,00:33,5.31,
12/23/12,21:57,02:44,4.78,
12/22/12,18:07,21:44,3.61,
12/21/12,23:00,23:00,0.0,
12/21/12,22:56,22:56,0.0,
12/21/12,21:24,22:50,1.42,
12/21/12,15:55,21:14,5.32,
12/21/12,01:12,01:12,0.0,
12/21/12,18:19,01:07,6.79,
12/20/12,02:30,02:55,0.41,
12/20/12,01:10,02:20,1.16,
12/20/12,01:00,01:00,0.0,
12/19/12,18:03,21:02,2.97,
12/19/12,15:01,17:50,2.81,
12/19/12,00:08,00:08,0.0,
12/19/12,00:00,00:00,0.0,
12/18/12,23:51,23:51,0.0,
12/18/12,23:40,23:40,0.0,
12/18/12,17:46,23:30,5.73,
12/18/12,23:53,02:10,2.29,
12/17/12,23:20,23:42,0.37,
12/17/12,19:18,23:09,3.85,
12/17/12,18:58,19:08,0.17,
12/17/12,01:38,01:38,0.00,
12/17/12,01:28,01:28,0.0,
12/17/12,23:51,01:26,1.57,
12/16/12,23:36,23:41,0.08,
12/16/12,19:55,23:26,3.51,
12/16/12,04:54,04:54,0.0,
12/16/12,04:09,04:51,0.69,
12/16/12,01:23,03:57,2.56,
12/16/12,00:54,01:06,0.2,
12/16/12,00:32,00:32,0.0,
12/16/12,00:09,00:09,0.0,
12/15/12,23:08,23:08,0.0,
12/15/12,22:57,22:57,0.0,
12/15/12,22:47,22:47,0.0,
12/15/12,19:45,22:38,2.87,
12/15/12,06:38,08:05,1.45,sick
12/15/12,03:40,06:28,2.8,
12/15/12,03:00,03:30,0.5,
12/15/12,01:38,01:38,0.0,
12/15/12,01:24,01:24,0.0,
12/15/12,22:00,01:23,3.38,
12/14/12,21:50,21:50,0.0,
12/14/12,19:49,21:38,1.81,
12/14/12,18:26,19:39,1.21,
12/14/12,02:40,04:10,1.5,
12/14/12,02:09,02:09,0.0,Tokyo
12/14/12,01:42,01:58,0.27,
12/14/12,00:30,01:32,1.03,
12/14/12,23:07,00:20,1.20,
12/13/12,19:49,22:54,3.07,
12/13/12,02:59,03:40,0.68,Singapore stopover
12/13/12,01:43,02:43,1.0,
12/12/12,23:08,23:08,0.0,
12/12/12,20:39,21:50,1.19,
12/12/12,17:36,20:29,2.87,
12/12/12,03:40,05:40,2.0,Frankfurt - Singapore
12/11/12,09:38,09:38,0.0,
12/11/12,04:01,09:28,5.45,going to Japan
12/10/12,01:39,08:01,6.35,
12/09/12,07:07,09:30,2.38,
12/09/12,02:25,06:57,4.52,
12/09/12,02:05,02:05,0.0,
12/08/12,01:12,10:29,9.27,
12/07/12,03:44,06:30,2.76,Fauske
12/07/12,01:38,03:34,1.92,
12/06/12,02:14,08:29,6.25,
12/05/12,06:52,08:35,1.71,
12/05/12,02:00,06:40,4.66,
12/04/12,01:16,08:15,6.98,
12/03/12,05:39,07:45,2.09,
12/03/12,01:22,05:29,4.12,
12/02/12,08:44,09:31,0.77,
12/02/12,02:54,08:34,5.67,
12/02/12,02:41,02:44,0.03,
12/01/12,09:48,10:23,0.58,
12/01/12,01:34,09:45,8.16,
12/01/12,01:15,01:15,0.0,
11/30/12,23:52,07:22,7.50,
11/29/12,02:26,09:11,6.74,
11/28/12,01:01,08:00,6.98,
11/27/12,01:28,08:15,6.78,
11/26/12,01:32,09:27,7.91,
11/25/12,04:58,09:33,4.58,
11/25/12,01:09,04:45,3.59,
11/24/12,09:54,10:48,0.90,
11/24/12,02:11,09:44,7.55,
11/23/12,01:08,08:15,7.12,
11/22/12,01:30,08:00,6.5,
11/21/12,01:55,08:00,6.08,
11/20/12,01:29,08:00,6.51,
11/19/12,09:27,10:58,1.50,
11/19/12,03:35,09:17,5.70,
11/18/12,03:35,11:15,7.66,
11/17/12,02:10,09:17,7.11,
11/16/12,01:22,08:01,6.65,
11/15/12,09:10,09:50,0.66,
11/15/12,08:23,09:06,0.71,
11/15/12,02:39,08:11,5.53,
11/14/12,01:16,08:53,7.61,
11/13/12,05:13,08:00,2.78,
11/13/12,01:37,05:01,3.38,
11/12/12,01:43,08:00,6.28,
11/12/12,01:33,01:33,0.0,
11/11/12,03:25,10:16,6.83,
11/10/12,00:07,09:02,8.92,
11/09/12,01:47,08:00,6.22,
11/08/12,09:12,09:12,0.0,
11/08/12,02:04,09:12,7.12,
11/07/12,00:29,08:00,7.52,
11/06/12,01:16,08:00,6.73,
11/05/12,01:38,08:01,6.38,
11/04/12,05:04,10:09,5.09,
11/04/12,02:12,04:53,2.69,
11/03/12,00:59,08:30,7.53,
11/02/12,17:00,17:30,0.5,
11/02/12,05:51,05:51,0.0,
11/02/12,05:43,05:43,0.0,
11/02/12,00:27,05:25,4.96,
11/01/12,00:52,08:00,7.13,
10/31/12,02:06,08:00,5.91,
10/30/12,01:09,08:01,6.86,
10/29/12,00:30,07:00,6.5,
10/28/12,08:49,08:52,0.05,
10/28/12,02:32,08:39,6.11,
10/28/12,02:22,02:22,0.0,
10/27/12,02:02,10:10,8.13,
10/26/12,01:14,08:00,6.76,
10/25/12,03:04,09:28,6.40,
10/24/12,00:34,07:30,6.93,
10/23/12,01:35,08:30,6.91,
10/22/12,01:36,07:56,6.32,
10/21/12,02:14,09:31,7.28,
10/20/12,01:31,10:20,8.80,
10/19/12,05:55,07:00,1.08,
10/19/12,22:54,05:40,6.75,
10/18/12,01:51,08:09,6.30,
10/17/12,01:07,07:40,6.55,
10/16/12,00:38,07:00,6.36,
10/15/12,00:53,06:54,6.01,
10/14/12,00:27,08:43,8.25,
10/13/12,01:49,09:00,7.17,
10/12/12,01:26,08:15,6.81,
10/11/12,01:28,08:31,7.04,
10/10/12,01:32,08:35,7.05,
10/09/12,02:14,08:35,6.35,
10/08/12,23:42,06:30,6.81,
10/07/12,03:00,10:21,7.34,
10/07/12,02:45,02:50,0.08,
10/06/12,08:50,09:50,1.00,
10/06/12,02:21,08:37,6.26,
10/05/12,06:14,08:35,2.34,
10/05/12,01:20,06:02,4.69,
10/04/12,01:48,08:24,6.61,
10/03/12,01:43,09:30,7.78,
10/02/12,01:56,08:39,6.72,
10/01/12,02:39,07:27,4.79,
09/30/12,08:06,09:36,1.50,
09/30/12,01:05,07:56,6.86,
09/29/12,01:34,09:30,7.93,
09/28/12,02:30,09:44,7.23,
09/27/12,02:07,09:31,7.40,
09/26/12,00:47,07:30,6.71,
09/25/12,05:56,06:30,0.55,
09/25/12,05:05,05:46,0.69,
09/25/12,22:53,04:54,6.01,
09/24/12,13:45,14:10,0.41,
09/24/12,08:32,08:32,0.0,
09/24/12,02:09,08:25,6.25,
09/23/12,09:58,10:18,0.33,
09/23/12,08:15,08:25,0.16,
09/23/12,07:33,07:33,0.0,
09/23/12,02:19,07:22,5.04,
09/22/12,17:46,19:08,1.37,
09/22/12,17:34,17:35,0.01,
09/22/12,01:31,07:45,6.23,
09/21/12,23:37,06:45,7.12,
09/20/12,00:15,06:48,6.55,
09/19/12,23:28,06:31,7.05,
09/18/12,01:20,07:30,6.17,
09/17/12,00:42,07:00,6.29,
09/16/12,08:20,08:45,0.41,
09/16/12,00:45,08:16,7.52,
09/15/12,02:15,10:03,7.80,
09/14/12,06:05,08:00,1.90,
09/14/12,00:09,05:53,5.73,
09/13/12,06:21,06:58,0.61,
09/13/12,00:45,06:10,5.42,
09/12/12,23:27,06:34,7.10,
09/11/12,02:35,09:20,6.75,
09/10/12,00:22,06:30,6.13,
09/09/12,07:25,08:18,0.89,
09/09/12,23:41,07:15,7.56,
09/08/12,09:01,09:01,0.0,
09/08/12,08:29,08:29,0.0,
09/08/12,01:34,08:17,6.71,
09/07/12,06:37,07:36,0.98,
09/07/12,23:05,06:26,7.35,
09/06/12,00:44,06:57,6.22,
09/05/12,05:31,06:30,0.97,
09/05/12,00:04,05:19,5.25,
09/04/12,03:22,06:30,3.13,
09/04/12,23:10,03:12,4.02,
09/03/12,00:13,07:00,6.78,
09/02/12,02:33,10:05,7.51,
09/01/12,07:58,08:00,0.03,
09/01/12,06:38,07:47,1.15,
09/01/12,06:09,06:28,0.30,
09/01/12,02:29,05:59,3.50,
09/01/12,23:12,02:19,3.11,
08/31/12,09:38,09:38,0.0,
08/31/12,02:47,09:28,6.67,
08/30/12,07:21,07:21,0.01,
08/30/12,01:15,07:10,5.92,
08/29/12,02:10,08:18,6.13,
08/28/12,07:55,08:58,1.05,
08/28/12,01:38,07:45,6.11,
08/27/12,00:20,07:32,7.19,
08/26/12,02:08,09:30,7.36,
08/25/12,09:25,09:40,0.25,
08/25/12,05:43,09:20,3.61,
08/25/12,00:57,05:32,4.58,
08/24/12,07:03,07:13,0.16,
08/24/12,06:25,06:55,0.49,
08/24/12,00:42,06:15,5.54,
08/23/12,07:35,07:35,0.0,
08/23/12,01:05,07:26,6.34,
08/22/12,01:21,08:20,6.98,
08/21/12,01:03,08:25,7.36,
08/20/12,01:36,08:00,6.39,
08/19/12,07:12,08:18,1.10,
08/19/12,00:53,07:02,6.14,
08/18/12,09:27,09:27,0.0,
08/18/12,07:34,09:26,1.86,
08/18/12,02:28,07:24,4.92,
08/17/12,01:35,09:00,7.40,
08/16/12,07:13,07:41,0.46,
08/16/12,01:02,07:00,5.97,
08/15/12,00:47,07:01,6.23,
08/14/12,15:35,15:40,0.08,
08/14/12,06:06,07:00,0.90,
08/14/12,00:05,05:55,5.82,
08/13/12,01:23,08:15,6.86,
08/12/12,09:18,09:18,0.0,
08/12/12,07:51,09:09,1.30,
08/12/12,01:35,07:41,6.09,
08/11/12,09:35,09:35,0.0,
08/11/12,08:58,09:24,0.42,
08/11/12,01:15,08:48,7.54,
08/10/12,16:30,16:44,0.23,
08/10/12,07:52,08:02,0.17,
08/10/12,01:33,07:42,6.15,
08/09/12,01:20,08:15,6.91,
08/08/12,01:39,08:39,6.99,
08/07/12,01:35,09:00,7.41,
08/06/12,07:49,08:23,0.55,
08/06/12,01:25,07:38,6.20,
08/05/12,05:22,07:01,1.63,
08/05/12,01:36,05:12,3.60,
08/05/12,01:24,01:24,0.0,
08/05/12,01:21,01:21,0.0,
08/05/12,22:56,01:20,2.4,
08/04/12,15:19,16:31,1.19,
08/04/12,05:46,08:36,2.84,
08/04/12,00:00,05:46,5.76,
08/03/12,08:36,08:56,0.33,
08/03/12,07:56,08:28,0.53,
08/03/12,05:38,07:56,2.3,
08/03/12,00:28,05:38,5.16,
08/02/12,01:06,09:24,8.30,
08/01/12,06:37,09:36,2.98,
08/01/12,01:54,06:33,4.64,
08/01/12,00:29,01:54,1.41,
07/31/12,05:01,09:11,4.16,
07/31/12,01:06,04:57,3.84,
07/30/12,23:47,07:50,8.04,
07/29/12,23:51,07:30,7.65,
07/28/12,10:07,10:09,0.04,
07/28/12,03:22,10:06,6.73,
07/27/12,09:37,09:45,0.13,
07/27/12,05:00,09:36,4.61,
07/27/12,01:06,04:57,3.85,
07/26/12,06:21,06:41,0.32,
07/26/12,06:15,06:20,0.08,
07/26/12,06:07,06:15,0.14,
07/26/12,04:02,06:06,2.07,
07/26/12,01:22,04:02,2.65,
07/25/12,03:13,10:06,6.88,
07/24/12,08:47,10:06,1.31,
07/24/12,01:40,08:47,7.11,
07/23/12,09:41,09:56,0.25,
07/23/12,02:01,09:39,7.63,
07/22/12,09:44,10:11,0.45,
07/22/12,02:19,09:44,7.41,
07/21/12,01:55,10:25,8.49,
07/20/12,06:50,08:52,2.03,
07/20/12,00:55,06:50,5.91,
07/19/12,15:07,16:00,0.87,
07/19/12,14:47,15:07,0.33,
07/19/12,00:38,06:50,6.19,
07/18/12,15:24,15:24,0.0,
07/18/12,15:03,15:23,0.33,
07/18/12,13:41,15:03,1.35,
07/18/12,06:47,06:47,0.0,
07/18/12,03:17,06:45,3.46,After my 400m record
07/17/12,01:15,10:33,9.28,
07/16/12,09:10,10:31,1.35,
07/16/12,01:13,09:12,7.99,
07/15/12,09:30,10:00,0.5,
07/15/12,01:27,08:54,7.45,
07/14/12,08:44,09:21,0.60,
07/14/12,00:06,08:44,8.62,
07/13/12,02:02,08:52,6.83,
07/13/12,08:52,08:52,0.0,
07/12/12,04:20,08:51,4.52,
07/12/12,00:25,04:17,3.86,
07/11/12,09:03,09:03,0.0,
07/11/12,03:04,09:02,5.97,
07/11/12,01:15,02:37,1.35,
07/10/12,09:28,09:37,0.14,
07/10/12,03:59,09:18,5.32,
07/10/12,01:51,03:48,1.95,
07/09/12,07:13,09:15,2.03,
07/09/12,00:09,07:03,6.89,
07/08/12,01:24,09:21,7.95,
07/07/12,00:41,09:07,8.42,
07/06/12,07:10,08:48,1.62,
07/06/12,01:08,07:00,5.87,
07/05/12,08:52,09:50,0.96,
07/05/12,08:36,08:42,0.09,
07/05/12,05:46,08:26,2.66,
07/05/12,01:20,05:36,4.26,
07/04/12,08:38,08:46,0.13,
07/04/12,07:16,08:27,1.18,
07/04/12,00:02,07:06,7.06,
07/03/12,01:18,06:16,4.97,
07/02/12,18:50,19:20,0.5,
07/02/12,08:16,09:06,0.83,
07/02/12,07:16,08:06,0.83,
07/02/12,00:30,07:06,6.59,
07/01/12,06:05,06:05,0.0,
07/01/12,00:09,06:01,5.86,
07/01/12,22:31,00:01,1.5,
06/30/12,01:11,07:10,5.99,
06/29/12,08:33,08:38,0.08,
06/29/12,08:21,08:22,0.01,
06/29/12,00:41,08:11,7.50,
06/28/12,08:01,08:30,0.48,
06/28/12,00:36,07:51,7.26,
06/27/12,00:23,08:45,8.37,
06/26/12,00:20,08:33,8.21,
06/25/12,08:00,08:00,0.0,
06/25/12,00:17,07:55,7.63,
06/24/12,01:33,05:00,3.45,
06/23/12,06:38,08:23,1.75,
06/23/12,05:53,06:28,0.58,
06/23/12,05:14,05:43,0.48,
06/23/12,04:59,05:04,0.08,
06/23/12,01:40,04:48,3.14,
06/22/12,01:03,08:05,7.03,
06/21/12,01:21,08:20,6.98,
06/20/12,01:26,08:20,6.90,
06/19/12,00:15,08:00,7.75,
06/18/12,06:25,07:30,1.07,
06/18/12,01:11,06:15,5.06,
06/17/12,07:18,08:10,0.85,
06/17/12,01:29,07:08,5.65,
06/16/12,07:56,08:30,0.56,
06/16/12,00:49,07:46,6.95,
06/15/12,07:44,08:28,0.72,
06/15/12,07:34,07:34,0.0,
06/15/12,06:11,07:31,1.33,
06/15/12,01:12,06:01,4.80,
06/14/12,00:46,07:35,6.82,
06/13/12,00:42,08:00,7.30,
06/12/12,00:31,08:10,7.65,
06/11/12,00:35,08:00,7.41,
06/10/12,09:09,10:00,0.85,
06/10/12,01:35,08:59,7.40,
06/09/12,01:49,09:13,7.39,
06/08/12,23:05,06:55,7.83,
06/07/12,01:23,08:40,7.27,
06/06/12,04:06,08:00,3.90,
06/06/12,00:45,03:54,3.15,
06/05/12,07:38,08:00,0.36,
06/05/12,00:52,07:26,6.56,
06/04/12,00:41,07:51,7.16,
06/03/12,01:42,09:39,7.94,
06/02/12,09:14,09:14,0.0,
06/02/12,02:06,09:05,6.97,
06/01/12,01:14,08:45,7.51,
05/31/12,00:09,07:42,7.53,
05/30/12,00:34,07:45,7.19,
05/30/12,00:22,00:22,0.0,
05/29/12,23:27,07:00,7.53,
05/28/12,01:52,09:59,8.11,
05/27/12,09:41,10:35,0.90,
05/27/12,03:10,09:31,6.34,
05/26/12,00:23,09:33,9.15,
05/25/12,08:07,08:14,0.11,
05/25/12,07:27,07:57,0.49,
05/25/12,01:58,07:16,5.30,
05/24/12,23:00,06:45,7.75,
05/23/12,15:10,15:30,0.33,
05/23/12,01:05,07:58,6.88,
05/22/12,00:02,07:00,6.97,
05/21/12,23:58,07:00,7.02,
05/20/12,23:47,23:47,0.0,
05/20/12,02:01,09:44,7.72,
05/19/12,01:34,09:31,7.96,
05/18/12,07:45,09:19,1.56,
05/18/12,00:34,07:33,6.98,
05/17/12,09:13,09:13,0.0,
05/17/12,08:56,08:56,0.0,
05/17/12,08:12,08:48,0.59,
05/17/12,01:50,08:00,6.16,
05/16/12,01:58,07:15,5.28,
05/16/12,23:14,01:45,2.51,
05/15/12,05:24,07:10,1.77,
05/15/12,23:00,05:13,6.20,
05/14/12,06:39,06:51,0.19,
05/14/12,22:29,06:29,7.99,
05/13/12,08:45,08:45,0.0,
05/13/12,07:20,07:46,0.42,
05/13/12,05:56,07:10,1.23,
05/13/12,02:38,05:46,3.13,
05/13/12,23:47,02:25,2.63,
05/12/12,00:35,08:20,7.75,
05/11/12,07:54,07:54,0.0,
05/11/12,07:48,07:50,0.04,
05/11/12,06:28,07:37,1.15,
05/11/12,06:10,06:18,0.13,
05/11/12,00:45,05:59,5.22,
05/10/12,22:28,06:45,8.28,
05/09/12,07:25,07:54,0.47,
05/09/12,00:45,07:15,6.50,
05/08/12,22:43,06:45,8.02,
05/07/12,23:58,06:58,7.00,
05/06/12,08:09,08:09,0.0,
05/06/12,00:58,08:08,7.16,
05/05/12,08:28,08:53,0.42,
05/05/12,00:41,08:18,7.60,
05/04/12,05:56,06:54,0.97,
05/04/12,04:18,05:45,1.46,
05/04/12,23:18,04:07,4.82,
05/03/12,23:00,06:49,7.82,
05/02/12,06:34,06:34,0.0,
05/02/12,06:23,06:29,0.09,
05/02/12,06:13,06:13,0.0,
05/02/12,05:16,06:06,0.83,
05/02/12,03:56,05:06,1.15,
05/02/12,02:46,03:46,0.99,
05/02/12,23:03,02:36,3.54,
05/01/12,09:15,10:20,1.07,
05/01/12,02:07,09:05,6.97,
04/30/12,08:38,08:38,0.0,
04/30/12,08:25,08:28,0.04,
04/30/12,07:01,08:15,1.23,
04/30/12,02:10,06:51,4.68,
04/29/12,08:28,09:52,1.39,
04/29/12,06:29,08:18,1.81,
04/29/12,00:28,06:19,5.84,
04/28/12,09:10,09:10,0.0,
04/28/12,02:34,09:05,6.51,
04/27/12,07:43,08:28,0.75,
04/27/12,02:28,07:33,5.07,
04/26/12,00:37,07:45,7.12,
04/25/12,09:11,09:35,0.39,
04/25/12,07:31,09:01,1.49,
04/25/12,02:40,07:21,4.68,
04/24/12,00:32,07:15,6.72,
04/23/12,23:43,07:15,7.52,
04/22/12,06:00,09:26,3.44,
04/22/12,01:20,05:47,4.45,
04/21/12,08:31,09:35,1.05,
04/21/12,01:28,08:18,6.84,
04/20/12,05:32,07:15,1.71,
04/20/12,23:45,05:20,5.57,
04/19/12,00:19,07:15,6.93,
04/18/12,23:50,07:15,7.41,
04/17/12,08:55,09:35,0.66,
04/17/12,08:44,08:51,0.11,
04/17/12,01:22,08:34,7.19,
04/16/12,07:12,07:12,0.0,
04/16/12,01:06,07:10,6.07,
04/15/12,00:01,07:30,7.47,
04/14/12,09:17,09:17,5.55,
04/14/12,08:54,09:07,0.20,
04/14/12,02:18,08:44,6.44,
04/13/12,01:48,08:15,6.45,
04/12/12,00:45,07:40,6.90,
04/11/12,00:24,07:47,7.38,
04/10/12,00:55,08:00,7.08,
04/09/12,10:29,10:29,0.00,
04/09/12,10:18,10:18,0.0,
04/09/12,03:18,10:13,6.91,
04/08/12,01:03,09:10,8.12,
04/07/12,01:01,08:39,7.62,
04/06/12,09:27,09:27,0.0,
04/06/12,01:54,09:22,7.47,
04/05/12,02:07,10:14,8.12,
04/04/12,00:31,08:57,8.42,
04/03/12,09:07,10:01,0.9,
04/03/12,09:00,09:00,0.0,
04/03/12,01:51,09:00,7.14,
04/02/12,01:14,08:45,7.50,
04/01/12,07:03,10:05,3.04,
04/01/12,06:50,06:50,0.0,
04/01/12,00:45,06:36,5.84,
03/31/12,07:25,09:10,1.75,
03/31/12,07:09,07:09,2.77,
03/31/12,06:20,07:00,0.66,
03/31/12,05:33,06:10,0.62,
03/31/12,23:48,05:23,5.58,
03/30/12,23:57,07:27,7.49,
03/29/12,00:06,07:15,7.14,
03/28/12,05:13,06:46,1.54,
03/28/12,23:25,05:03,5.63,
03/27/12,23:56,06:42,6.75,
03/26/12,07:28,08:10,0.70,
03/26/12,01:42,07:17,5.58,
03/25/12,00:25,08:47,7.36,
03/24/12,01:27,09:14,7.78,
03/23/12,00:39,07:02,6.39,
03/22/12,00:47,07:26,6.64,
03/21/12,23:42,07:30,7.80,
03/20/12,00:58,07:43,6.75,
03/20/12,00:48,00:48,0.0,
03/19/12,00:06,06:45,6.64,
03/18/12,10:23,10:25,0.03,
03/18/12,08:09,10:13,2.05,
03/18/12,02:59,07:57,4.97,
03/17/12,07:02,09:30,2.46,
03/17/12,01:15,06:52,5.60,
03/16/12,07:30,07:30,0.0,
03/16/12,00:43,07:29,6.76,
03/15/12,06:36,07:30,0.89,
03/15/12,01:12,06:24,5.18,
03/14/12,06:29,06:51,0.37,
03/14/12,00:25,06:19,5.89,
03/13/12,00:32,07:45,7.21,
03/12/12,06:33,07:00,0.44,
03/12/12,06:01,06:23,0.37,
03/12/12,22:47,05:50,7.05,
03/11/12,07:05,09:28,2.38,
03/11/12,02:23,06:53,4.49,
03/10/12,10:38,10:38,0.0,
03/10/12,08:38,10:34,1.93,
03/10/12,03:28,08:26,4.97,
03/09/12,07:20,07:20,0.0,
03/09/12,04:57,07:08,2.18,
03/09/12,00:14,04:45,4.50,
03/08/12,05:18,07:00,1.69,
03/08/12,04:58,04:58,0.0,
03/08/12,04:33,04:33,0.0,
03/08/12,01:55,04:21,2.43,
03/08/12,22:23,01:41,3.29,
03/07/12,22:07,22:13,0.10,
03/07/12,05:32,07:21,1.80,
03/07/12,00:55,05:20,4.41,
03/06/12,00:54,07:34,6.67,
03/05/12,06:54,08:05,1.18,
03/05/12,01:03,06:42,5.64,
03/04/12,09:46,09:46,0.0,
03/04/12,09:20,09:44,0.39,
03/04/12,02:31,09:10,6.65,
03/03/12,08:03,08:37,0.55,
03/03/12,00:51,07:53,7.03,
03/02/12,00:39,07:32,6.89,
03/01/12,00:48,07:48,7.00,
02/29/12,23:35,06:40,7.07,
02/28/12,06:47,07:45,0.96,
02/28/12,22:44,06:37,7.88,
02/27/12,07:30,07:53,0.38,
02/27/12,00:08,07:16,7.12,
02/26/12,05:08,08:32,3.40,
02/25/12,02:10,09:36,7.42,
02/24/12,01:21,08:10,6.80,
02/23/12,00:55,08:10,7.25,
02/22/12,01:22,08:21,6.99,
02/21/12,08:12,08:34,0.36,
02/21/12,01:14,08:02,6.80,
02/20/12,00:34,08:00,7.42,
02/19/12,02:06,09:57,7.84,
02/18/12,02:25,10:05,7.65,
02/17/12,00:29,08:00,7.51,
02/16/12,00:47,08:10,7.37,
02/15/12,06:47,08:15,1.45,
02/15/12,01:04,06:37,5.54,
02/14/12,00:17,07:50,7.54,
02/13/12,04:02,08:00,3.96,
02/13/12,23:49,03:47,3.96,
02/12/12,09:38,09:38,0.0,
02/12/12,00:58,09:21,8.39,
02/11/12,01:24,10:42,9.30,
02/10/12,08:28,08:28,0.0,
02/10/12,02:04,08:18,6.22,
02/09/12,00:19,08:00,7.67,
02/08/12,00:24,07:45,7.35,
02/07/12,06:51,07:37,0.77,
02/07/12,04:21,06:41,2.33,
02/07/12,04:11,04:11,2.77,
02/07/12,03:46,04:01,0.24,
02/07/12,03:02,03:36,0.55,
02/07/12,02:16,02:52,0.59,
02/07/12,01:05,01:50,0.74,
02/07/12,22:11,00:55,2.73,
02/06/12,21:49,21:49,0.0,
02/06/12,07:54,08:28,0.56,
02/06/12,07:24,07:44,0.32,
02/06/12,06:29,07:14,0.75,
02/06/12,05:25,06:19,0.89,
02/06/12,03:29,05:15,1.77,
02/06/12,01:35,03:19,1.73,
02/06/12,23:16,01:25,2.14,
02/05/12,22:52,22:52,0.0,
02/05/12,22:27,22:50,0.37,
02/05/12,22:17,22:17,2.77,
02/05/12,21:39,22:17,0.62,
02/05/12,20:55,21:29,0.56,
02/05/12,19:59,20:42,0.72,
02/05/12,15:51,16:20,0.49,
02/05/12,14:38,15:41,1.04,
02/05/12,13:26,14:28,1.02,
02/05/12,09:51,09:51,0.0,
02/05/12,09:23,09:23,0.0,
02/05/12,07:57,09:18,1.35,
02/05/12,07:07,07:47,0.66,
02/05/12,05:44,06:57,1.21,
02/05/12,01:00,05:30,4.50,
02/04/12,15:36,17:30,1.89,
02/04/12,10:09,10:17,0.13,
02/04/12,08:56,09:58,1.03,
02/04/12,08:13,08:13,0.0,
02/04/12,01:46,07:52,6.10,
02/03/12,23:06,06:15,7.15,
02/02/12,00:59,07:50,6.84,
02/01/12,00:41,08:40,7.97,
01/31/12,00:03,07:30,7.46,
01/30/12,07:17,07:17,0.0,
01/30/12,23:42,07:15,7.54,
01/29/12,05:10,10:28,5.30,
01/29/12,01:44,05:00,3.25,
01/28/12,09:54,09:54,0.01,
01/28/12,02:46,09:44,6.96,
01/27/12,23:24,07:15,7.84,
01/26/12,01:09,07:38,6.47,
01/25/12,00:22,07:50,7.45,
01/24/12,00:43,08:00,7.28,
01/23/12,00:12,07:30,7.30,
01/22/12,01:40,09:23,7.71,
01/21/12,08:17,09:45,1.46,
01/21/12,01:00,08:07,7.12,
01/20/12,00:42,08:00,7.29,
01/19/12,00:33,07:47,7.23,
01/18/12,00:25,07:45,7.32,
01/17/12,07:35,08:31,0.93,
01/17/12,07:17,07:22,0.06,
01/17/12,01:23,07:07,5.74,
01/16/12,00:57,08:38,7.68,
01/15/12,08:29,09:28,0.97,
01/15/12,01:45,08:19,6.56,
01/14/12,00:33,09:00,8.43,
01/13/12,00:00,07:16,7.27,
01/12/12,23:48,07:15,7.45,
01/11/12,23:45,07:15,7.48,
01/10/12,07:26,07:45,0.30,
01/10/12,01:40,07:16,5.60,
01/10/12,00:49,01:29,0.68,
01/09/12,23:56,07:15,7.31,
01/08/12,09:48,09:48,0.0,
01/08/12,02:11,09:37,7.44,
01/07/12,07:32,09:02,1.48,
01/07/12,00:58,07:22,6.39,
01/06/12,00:48,07:45,6.94,
01/05/12,23:49,07:15,7.42,
01/04/12,23:47,07:15,7.47,
01/03/12,00:16,07:15,6.98,
01/02/12,06:07,07:15,1.12,
01/02/12,00:20,05:57,5.61,
01/01/12,23:58,23:58,0.0,
01/01/12,23:22,23:27,0.08,
01/01/12,10:29,10:29,0.0,
01/01/12,07:25,10:19,2.88,
01/01/12,03:06,07:13,4.10,
12/31/11,09:00,10:05,1.09,
12/31/11,02:39,08:49,6.17,
12/30/11,02:05,09:46,7.68,
12/29/11,03:23,10:34,7.19,
12/28/11,01:39,09:30,7.85,
12/27/11,01:42,09:24,7.70,
12/26/11,01:19,08:41,7.36,
12/25/11,08:45,09:06,0.35,
12/25/11,00:38,08:34,7.94,
12/24/11,07:56,09:19,1.38,
12/24/11,01:31,07:46,6.24,
12/23/11,02:09,10:41,8.51,
12/23/11,01:50,01:50,0.0,
12/22/11,00:52,08:25,7.55,
12/21/11,00:52,07:46,6.90,
12/20/11,02:00,08:45,6.75,
12/19/11,01:09,08:05,6.92,
12/18/11,09:46,10:55,1.13,
12/18/11,02:39,09:36,6.94,
12/17/11,00:56,10:40,9.73,
12/16/11,04:20,09:31,5.18,
12/16/11,00:48,03:24,2.6,
12/15/11,01:08,08:05,6.94,
12/14/11,01:15,08:58,7.71,
12/13/11,01:26,08:15,6.81,
12/12/11,00:45,07:32,6.79,
12/11/11,00:51,08:44,7.87,
12/10/11,07:40,08:37,0.94,
12/10/11,01:04,07:30,6.43,
12/09/11,00:00,08:31,8.52,
12/08/11,05:38,08:44,3.10,
12/08/11,01:15,05:26,4.17,
12/07/11,00:53,09:22,8.48,
12/06/11,08:23,08:40,0.27,
12/06/11,01:16,08:13,6.94,
12/05/11,00:28,08:31,8.05,
12/04/11,00:45,09:11,8.43,
12/03/11,12:11,12:21,0.16,
12/03/11,00:12,05:00,4.80,
12/02/11,04:29,08:43,4.22,
12/02/11,00:40,04:16,3.59,
12/01/11,23:45,07:32,7.77,
11/30/11,04:54,08:00,3.08,
11/30/11,00:13,04:44,4.51,
11/29/11,23:39,08:00,8.35,
11/28/11,23:13,08:00,8.77,
11/27/11,09:00,09:00,0.0,
11/27/11,08:45,08:59,0.23,
11/27/11,06:58,08:35,1.60,
11/27/11,04:13,06:45,2.54,
11/26/11,17:01,17:01,2.77,
11/26/11,16:36,16:56,0.33,
11/26/11,01:28,08:00,6.52,
11/25/11,00:16,07:24,7.13,
11/24/11,00:13,07:49,7.60,
11/23/11,00:11,07:51,7.65,
11/22/11,00:04,08:10,8.09,
11/21/11,00:32,07:57,7.41,
11/20/11,00:35,08:15,7.66,
11/19/11,01:53,09:08,7.24,
11/18/11,23:41,07:36,7.92,
11/17/11,00:31,08:00,7.47,
11/16/11,00:22,08:00,7.63,
11/15/11,00:51,08:11,7.32,
11/14/11,23:56,08:05,8.14,
11/13/11,02:21,09:21,7.00,
11/12/11,00:13,09:33,9.33,
11/11/11,07:21,07:21,0.0,
11/11/11,01:18,07:08,5.83,
11/10/11,00:34,08:15,7.68,
11/09/11,01:26,08:16,6.83,
11/08/11,00:02,08:01,7.98,
11/07/11,23:50,07:15,7.40,
11/06/11,23:35,08:16,8.68,
11/05/11,09:33,09:33,0.0,
11/05/11,01:45,09:19,7.56,
11/04/11,00:30,07:30,7.00,
11/03/11,08:00,08:17,0.27,
11/03/11,01:36,07:50,6.23,
11/02/11,00:32,07:39,7.12,
11/01/11,07:38,07:38,0.0,
11/01/11,00:24,07:35,7.18,
10/31/11,00:25,08:01,7.60,
10/30/11,08:29,08:29,0.0,
10/30/11,02:03,08:18,7.24,
10/29/11,01:04,09:49,8.74,
10/28/11,01:23,08:28,7.08,
10/27/11,08:17,08:17,0.0,
10/27/11,01:40,08:13,6.54,
10/26/11,06:53,06:53,0.0,
10/26/11,04:22,06:44,2.37,
10/26/11,23:14,04:07,4.89,
10/25/11,00:32,06:32,6.0,
10/24/11,01:09,07:09,6.0,
10/23/11,05:24,09:40,4.27,
10/23/11,00:31,05:14,4.70,
10/22/11,06:28,08:57,2.48,
10/22/11,01:21,06:18,4.94,
10/21/11,00:30,07:40,7.16,
10/20/11,07:54,07:54,0.0,
10/20/11,00:13,07:48,7.58,
10/19/11,00:21,07:30,7.14,
10/18/11,03:37,08:00,4.38,
10/18/11,00:28,03:25,2.95,
10/17/11,00:36,07:26,6.84,
10/16/11,08:51,08:51,0.0,
10/16/11,02:22,08:45,6.38,
10/15/11,08:40,09:09,0.47,
10/15/11,00:13,08:26,8.21,
10/14/11,08:42,08:42,0.0,
10/14/11,02:13,08:35,6.36,
10/13/11,02:11,08:37,6.44,
10/12/11,01:29,08:15,6.76,
10/11/11,02:13,08:15,6.02,
10/10/11,00:59,08:15,7.27,
10/09/11,02:15,09:21,7.10,
10/08/11,08:12,08:12,0.0,
10/08/11,23:46,08:05,8.31,
10/07/11,01:46,09:34,7.80,
10/06/11,05:29,08:15,2.76,
10/06/11,03:36,03:36,0.00,
10/06/11,00:18,03:26,3.12,
10/05/11,09:10,09:56,0.76,
10/05/11,02:10,08:59,6.82,
10/04/11,01:16,08:05,6.81,
10/03/11,23:25,07:40,8.25,
10/02/11,04:16,06:16,2.0,
10/01/11,01:32,09:00,7.46,
09/30/11,01:41,09:10,7.46,
09/29/11,09:45,10:10,0.41,
09/29/11,01:42,09:39,7.95,
09/28/11,01:48,08:15,6.44,
09/27/11,01:30,08:15,6.73,
09/26/11,00:10,07:45,7.59,
09/25/11,02:21,09:40,7.32,
09/24/11,01:56,09:45,7.81,
09/23/11,08:35,09:53,1.31,
09/23/11,01:17,08:24,7.12,
09/22/11,01:02,09:14,8.20,
09/21/11,01:08,08:00,6.85,
09/20/11,22:57,07:16,8.32,
09/19/11,00:14,07:53,7.65,
09/18/11,11:27,11:37,0.17,
09/18/11,04:04,11:12,7.13,
09/17/11,09:39,09:42,0.05,
09/17/11,02:47,09:28,6.69,
09/16/11,01:54,08:40,6.76,
09/15/11,01:40,09:10,7.49,
09/14/11,00:29,07:20,6.85,
09/13/11,01:43,08:15,6.52,
09/12/11,02:22,08:12,5.83,
09/11/11,23:49,08:30,8.67,
09/10/11,10:59,11:12,0.21,
09/10/11,03:00,10:49,7.80,
09/09/11,03:24,10:00,6.59,
09/08/11,02:08,09:00,6.87,
09/07/11,02:11,08:15,6.06,
09/06/11,01:53,08:15,6.36,
09/05/11,03:00,08:15,5.24,
09/04/11,03:06,12:20,9.24,
09/03/11,01:56,08:40,6.73,
09/02/11,01:41,10:48,9.11,
09/01/11,08:34,09:11,0.63,
09/01/11,01:32,08:23,6.84,
08/31/11,02:19,08:09,5.83,
08/30/11,02:09,08:15,6.10,
08/29/11,01:33,08:14,6.68,
08/28/11,02:51,10:42,7.85,
08/27/11,01:50,09:56,8.09,
08/26/11,01:51,09:52,8.02,
08/25/11,03:07,08:57,5.83,
08/24/11,01:05,07:43,6.62,
08/23/11,07:22,07:31,0.16,
08/23/11,02:24,07:11,4.79,
08/22/11,01:08,07:20,6.19,
08/21/11,10:10,11:18,1.13,
08/21/11,01:43,10:00,8.28,
08/20/11,02:07,09:00,6.87,
08/19/11,02:47,07:30,4.71,
08/19/11,01:17,02:37,1.32,
08/18/11,02:31,09:00,6.47,
08/17/11,08:15,09:15,1.0,
08/17/11,01:50,08:00,6.15,
08/16/11,01:13,08:15,7.02,
08/15/11,00:30,07:04,6.56,
08/14/11,09:15,12:18,3.04,
08/14/11,02:22,09:03,6.68,
08/13/11,02:34,10:05,7.51,
08/12/11,02:13,09:22,7.14,
08/11/11,09:47,10:08,0.34,
08/11/11,03:00,09:37,6.61,
08/10/11,00:46,08:15,7.48,
08/09/11,01:15,08:03,6.80,
08/08/11,00:46,08:15,7.48,
08/07/11,10:12,10:12,0.0,
08/07/11,09:46,10:07,0.35,
08/07/11,09:09,09:36,0.44,
08/07/11,02:03,08:59,6.93,
08/06/11,01:08,08:52,7.73,
08/05/11,08:07,09:55,1.78,
08/05/11,02:06,07:57,5.85,
08/04/11,09:16,10:01,0.75,
08/04/11,03:12,09:06,5.90,
08/03/11,01:28,08:15,6.77,
08/02/11,01:38,08:16,6.62,
08/01/11,02:12,08:30,6.30,
07/31/11,08:59,09:05,0.10,
07/31/11,07:09,08:49,1.67,
07/31/11,05:27,06:58,1.52,
07/31/11,00:09,05:16,5.12,
07/30/11,02:19,10:30,8.19,
07/29/11,01:24,10:50,9.42,
07/28/11,09:36,09:43,0.11,
07/28/11,02:42,09:26,6.73,
07/27/11,02:15,08:14,5.97,
07/26/11,01:25,08:15,6.82,
07/25/11,02:14,08:15,6.01,
07/24/11,03:00,11:00,8.00,
07/24/11,02:48,02:48,0.0,
07/23/11,04:24,11:10,6.76,
07/22/11,01:51,09:35,7.72,
07/21/11,02:17,09:16,6.98,
07/20/11,01:32,08:09,6.61,
07/19/11,02:02,08:15,6.21,
07/18/11,06:23,08:15,1.85,
07/18/11,23:58,06:11,6.22,
07/17/11,02:18,10:46,8.46,
07/16/11,02:26,09:30,7.05,
07/15/11,09:19,09:19,0.0,
07/15/11,02:01,09:12,7.18,
07/14/11,01:16,10:07,8.84,
07/13/11,02:49,08:15,5.42,
07/12/11,17:33,17:53,0.33,
07/12/11,02:24,08:51,6.44,
07/11/11,01:57,08:15,6.29,
07/10/11,09:41,09:41,0.0,
07/10/11,02:42,09:24,6.69,
07/09/11,02:41,10:54,8.20,
07/08/11,08:39,10:39,2.01,
07/08/11,08:22,08:29,0.11,
07/08/11,05:34,08:12,2.63,
07/08/11,01:50,05:13,3.38,
07/07/11,09:03,09:07,0.05,
07/07/11,02:09,08:53,6.72,
07/06/11,00:20,08:15,7.90,
07/05/11,02:12,08:15,6.04,
07/04/11,01:32,08:15,6.71,
07/03/11,03:11,09:53,6.69,
07/02/11,01:14,08:50,7.59,
07/01/11,09:04,10:17,1.21,
07/01/11,08:54,08:54,0.0,
07/01/11,02:25,08:45,6.33,
07/01/11,02:01,02:10,0.15,
06/30/11,08:44,09:00,0.25,
06/30/11,01:03,08:34,7.51,
06/29/11,06:52,07:40,0.80,
06/29/11,00:06,06:40,6.55,
06/28/11,01:35,09:00,7.41,
06/27/11,01:10,08:15,7.08,
06/26/11,19:15,19:50,0.58,
06/26/11,09:30,09:43,0.22,
06/26/11,09:05,09:19,0.24,
06/26/11,08:37,08:55,0.29,
06/26/11,02:41,08:27,5.75,
06/25/11,02:06,10:12,8.09,
06/24/11,00:34,08:00,7.42,
06/23/11,03:12,08:15,5.04,
06/23/11,00:48,03:00,2.20,
06/22/11,00:52,08:15,7.37,
06/21/11,01:09,08:15,7.09,
06/20/11,01:26,08:15,6.81,
06/19/11,10:25,10:50,0.41,
06/19/11,02:16,10:22,8.09,
06/18/11,00:14,09:15,9.00,
06/17/11,01:17,08:15,6.95,
06/16/11,01:49,08:50,7.01,
06/15/11,00:45,07:30,6.75,
06/14/11,01:54,08:30,6.59,
06/13/11,01:53,10:38,8.74,
06/12/11,10:25,10:44,0.30,
06/12/11,07:51,10:15,2.39,
06/12/11,03:38,07:39,4.01,
06/11/11,01:00,09:00,8.00,
06/10/11,01:17,08:30,7.22,
06/09/11,00:36,08:00,7.39,
06/08/11,00:19,08:15,7.93,
06/07/11,01:28,08:15,6.77,
06/06/11,08:36,11:17,2.69,
06/06/11,02:24,08:15,5.84,
06/05/11,08:50,09:00,0.16,
06/05/11,01:00,08:46,7.77,
06/04/11,09:19,09:19,0.0,
06/04/11,01:00,09:15,8.23,
06/03/11,09:10,09:30,0.33,
06/03/11,08:47,09:06,0.31,
06/03/11,06:33,08:45,2.19,
06/03/11,01:22,06:23,5.01,
06/02/11,01:07,09:26,8.31,
06/01/11,07:40,07:50,0.16,
06/01/11,01:21,07:25,6.06,
05/31/11,01:12,08:15,7.05,
05/30/11,00:43,08:00,7.28,
05/29/11,02:39,10:44,8.09,
05/28/11,02:14,10:07,7.87,
05/27/11,09:20,09:33,0.21,
05/27/11,07:47,09:15,1.45,
05/27/11,02:08,07:36,5.45,
05/26/11,17:59,18:12,0.22,
05/26/11,01:38,08:15,6.61,
05/25/11,01:20,08:15,6.90,
05/24/11,02:03,07:50,5.78,
05/23/11,00:26,08:00,7.56,
05/22/11,09:36,09:40,0.06,
05/22/11,02:13,09:26,7.22,
05/21/11,01:52,09:53,8.02,
05/20/11,08:50,09:35,0.75,
05/20/11,01:35,08:40,7.07,
05/19/11,01:19,08:15,6.93,
05/18/11,07:37,08:00,0.38,
05/18/11,00:57,07:10,6.21,
05/17/11,09:13,09:13,0.0,
05/17/11,02:34,08:59,6.41,
05/16/11,09:30,10:20,0.83,
05/16/11,08:50,09:15,0.41,
05/16/11,02:38,08:39,6.01,
05/15/11,08:15,08:45,0.5,
05/15/11,01:28,08:11,6.71,
05/14/11,03:22,09:17,5.91,
05/07/11,01:39,10:17,8.63,
04/27/11,01:14,07:24,6.15,
04/24/11,03:38,09:24,5.77,
04/19/11,00:46,08:17,7.50,
04/11/11,02:26,08:10,5.74,
04/06/11,01:37,08:03,6.43,
03/30/11,01:31,07:13,5.70,
03/24/11,01:41,08:00,6.31,
03/18/11,18:04,18:14,0.16,
03/11/11,01:28,08:08,6.65,
03/03/11,02:08,06:57,4.81,
02/21/11,00:14,07:29,7.24,
02/15/11,00:36,07:43,7.11,
02/07/11,00:08,07:25,7.28,
01/31/11,20:36,23:53,3.29,
01/22/11,07:13,09:03,1.83,
01/15/11,01:32,08:44,7.20,
01/06/11,23:38,08:08,8.50,
12/30/10,01:39,08:26,6.78,
12/22/10,03:19,05:52,2.55,
12/15/10,02:16,05:36,3.33,
12/09/10,04:30,06:37,2.10,
12/04/10,01:01,06:58,5.94,
11/29/10,02:02,08:11,6.15,
11/19/10,00:45,07:22,6.60,
11/11/10,00:44,07:52,7.14,
11/02/10,01:31,08:35,7.07,
10/24/10,09:36,10:42,1.09,
10/19/10,01:19,08:13,6.89,
