Date, Sleep Time, Wake Time, Hours,Note
12/07/10,09:28,09:37,0.14,
12/07/10,03:59,09:18,5.32,
12/07/10,01:51,03:48,1.95,
12/07/09,07:13,09:15,2.03,
12/07/09,00:09,07:03,6.89,
12/07/08,01:24,09:21,7.95,
12/07/07,00:41,09:07,8.42,
12/07/06,07:10,08:48,1.62,
12/07/06,01:08,07:00,5.87,
12/07/05,08:52,09:50,0.96,
12/07/05,08:36,08:42,0.09,
12/07/05,05:46,08:26,2.66,
12/07/05,01:20,05:36,4.26,
12/07/04,08:38,08:46,0.13,
12/07/04,07:16,08:27,1.18,
12/07/04,00:02,07:06,7.06,
12/07/03,01:18,06:16,4.97,
12/07/02,18:50,19:20,0.5,
12/07/02,08:16,09:06,0.83,
12/07/02,07:16,08:06,0.83,
12/07/02,00:30,07:06,6.59,
12/07/01,06:05,06:05,0.0,
12/07/01,00:09,06:01,5.86,
12/07/01,22:31,00:01,1.5,
12/06/30,01:11,07:10,5.99,
12/06/29,08:33,08:38,0.08,
12/06/29,08:21,08:22,0.01,
12/06/29,00:41,08:11,7.50,
12/06/28,08:01,08:30,0.48,
12/06/28,00:36,07:51,7.26,
12/06/27,00:23,08:45,8.37,
12/06/26,00:20,08:33,8.21,
12/06/25,08:00,08:00,0.0,
12/06/25,00:17,07:55,7.63,
12/06/24,01:33,05:00,3.45,
12/06/23,06:38,08:23,1.75,
12/06/23,05:53,06:28,0.58,
12/06/23,05:14,05:43,0.48,
12/06/23,04:59,05:04,0.08,
12/06/23,01:40,04:48,3.14,
12/06/22,01:03,08:05,7.03,
12/06/21,01:21,08:20,6.98,
12/06/20,01:26,08:20,6.90,
12/06/19,00:15,08:00,7.75,
12/06/18,06:25,07:30,1.07,
12/06/18,01:11,06:15,5.06,
12/06/17,07:18,08:10,0.85,
12/06/17,01:29,07:08,5.65,
12/06/16,07:56,08:30,0.56,
12/06/16,00:49,07:46,6.95,
12/06/15,07:44,08:28,0.72,
12/06/15,07:34,07:34,0.0,
12/06/15,06:11,07:31,1.33,
12/06/15,01:12,06:01,4.80,
12/06/14,00:46,07:35,6.82,
12/06/13,00:42,08:00,7.30,
12/06/12,00:31,08:10,7.65,
12/06/11,00:35,08:00,7.41,
12/06/10,09:09,10:00,0.85,
12/06/10,01:35,08:59,7.40,
12/06/09,01:49,09:13,7.39,
12/06/08,23:05,06:55,7.83,
12/06/07,01:23,08:40,7.27,
12/06/06,04:06,08:00,3.90,
12/06/06,00:45,03:54,3.15,
12/06/05,07:38,08:00,0.36,
12/06/05,00:52,07:26,6.56,
12/06/04,00:41,07:51,7.16,
12/06/03,01:42,09:39,7.94,
12/06/02,09:14,09:14,0.0,
12/06/02,02:06,09:05,6.97,
12/06/01,01:14,08:45,7.51,
12/05/31,00:09,07:42,7.53,
12/05/30,00:34,07:45,7.19,
12/05/30,00:22,00:22,0.0,
12/05/29,23:27,07:00,7.53,
12/05/28,01:52,09:59,8.11,
12/05/27,09:41,10:35,0.90,
12/05/27,03:10,09:31,6.34,
12/05/26,00:23,09:33,9.15,
12/05/25,08:07,08:14,0.11,
12/05/25,07:27,07:57,0.49,
12/05/25,01:58,07:16,5.30,
12/05/24,23:00,06:45,7.75,
12/05/23,15:10,15:30,0.33,
12/05/23,01:05,07:58,6.88,
12/05/22,00:02,07:00,6.97,
12/05/21,23:58,07:00,7.02,
12/05/20,23:47,23:47,0.0,
12/05/20,02:01,09:44,7.72,
12/05/19,01:34,09:31,7.96,
12/05/18,07:45,09:19,1.56,
12/05/18,00:34,07:33,6.98,
12/05/17,09:13,09:13,0.0,
12/05/17,08:56,08:56,0.0,
12/05/17,08:12,08:48,0.59,
12/05/17,01:50,08:00,6.16,
12/05/16,01:58,07:15,5.28,
12/05/16,23:14,01:45,2.51,
12/05/15,05:24,07:10,1.77,
12/05/15,23:00,05:13,6.20,
12/05/14,06:39,06:51,0.19,
12/05/14,22:29,06:29,7.99,
12/05/13,08:45,08:45,0.0,
12/05/13,07:20,07:46,0.42,
12/05/13,05:56,07:10,1.23,
12/05/13,02:38,05:46,3.13,
12/05/13,23:47,02:25,2.63,
12/05/12,00:35,08:20,7.75,
12/05/11,07:54,07:54,0.0,
12/05/11,07:48,07:50,0.04,
12/05/11,06:28,07:37,1.15,
12/05/11,06:10,06:18,0.13,
12/05/11,00:45,05:59,5.22,
12/05/10,22:28,06:45,8.28,
12/05/09,07:25,07:54,0.47,
12/05/09,00:45,07:15,6.50,
12/05/08,22:43,06:45,8.02,
12/05/07,23:58,06:58,7.00,
12/05/06,08:09,08:09,1.02,
12/05/06,00:58,08:08,7.16,
12/05/05,08:28,08:53,0.42,
12/05/05,00:41,08:18,7.60,
12/05/04,05:56,06:54,0.97,
12/05/04,04:18,05:45,1.46,
12/05/04,23:18,04:07,4.82,
12/05/03,23:00,06:49,7.82,
12/05/02,06:34,06:34,3.33,
12/05/02,06:23,06:29,0.09,
12/05/02,06:13,06:13,1.30,
12/05/02,05:16,06:06,0.83,
12/05/02,03:56,05:06,1.15,
12/05/02,02:46,03:46,0.99,
12/05/02,23:03,02:36,3.54,
12/05/01,09:15,10:20,1.07,
12/05/01,02:07,09:05,6.97,
12/04/30,08:38,08:38,0.0,
12/04/30,08:25,08:28,0.04,
12/04/30,07:01,08:15,1.23,
12/04/30,02:10,06:51,4.68,
12/04/29,08:28,09:52,1.39,
12/04/29,06:29,08:18,1.81,
12/04/29,00:28,06:19,5.84,
12/04/28,09:10,09:10,1.25,
12/04/28,02:34,09:05,6.51,
12/04/27,07:43,08:28,0.75,
12/04/27,02:28,07:33,5.07,
12/04/26,00:37,07:45,7.12,
12/04/25,09:11,09:35,0.39,
12/04/25,07:31,09:01,1.49,
12/04/25,02:40,07:21,4.68,
12/04/24,00:32,07:15,6.72,
12/04/23,23:43,07:15,7.52,
12/04/22,06:00,09:26,3.44,
12/04/22,01:20,05:47,4.45,
12/04/21,08:31,09:35,1.05,
12/04/21,01:28,08:18,6.84,
12/04/20,05:32,07:15,1.71,
12/04/20,23:45,05:20,5.57,
12/04/19,00:19,07:15,6.93,
12/04/18,23:50,07:15,7.41,
12/04/17,08:55,09:35,0.66,
12/04/17,08:44,08:51,0.11,
12/04/17,01:22,08:34,7.19,
12/04/16,07:12,07:12,3.88,
12/04/16,01:06,07:10,6.07,
12/04/15,00:01,07:30,7.47,
12/04/14,09:17,09:17,5.74,
12/04/14,08:54,09:07,0.20,
12/04/14,02:18,08:44,6.44,
12/04/13,01:48,08:15,6.45,
12/04/12,00:45,07:40,6.90,
12/04/11,00:24,07:47,7.38,
12/04/10,00:55,08:00,7.08,
12/04/09,10:29,10:29,0.00,
12/04/09,10:18,10:18,4.72,
12/04/09,03:18,10:13,6.91,
12/04/08,01:03,09:10,8.12,
12/04/07,01:01,08:39,7.62,
12/04/06,09:27,09:27,7.77,
12/04/06,01:54,09:22,7.47,
12/04/05,02:07,10:14,8.12,
12/04/04,00:31,08:57,8.42,
12/04/03,09:07,10:01,0.9,
12/04/03,09:00,09:00,5.61,
12/04/03,01:51,09:00,7.14,
12/04/02,01:14,08:45,7.50,
12/04/01,07:03,10:05,3.04,
12/04/01,06:50,06:50,1.05,
12/04/01,00:45,06:36,5.84,
12/03/31,07:25,09:10,1.75,
12/03/31,07:09,07:09,6.94,
12/03/31,06:20,07:00,0.66,
12/03/31,05:33,06:10,0.62,
12/03/31,23:48,05:23,5.58,
12/03/30,23:57,07:27,7.49,
12/03/29,00:06,07:15,7.14,
12/03/28,05:13,06:46,1.54,
12/03/28,23:25,05:03,5.63,
12/03/27,23:56,06:42,6.75,
12/03/26,07:28,08:10,0.70,
12/03/26,01:42,07:17,5.58,
12/03/25,00:25,08:47,7.36,
12/03/24,01:27,09:14,7.78,
12/03/23,00:39,07:02,6.39,
12/03/22,00:47,07:26,6.64,
12/03/21,23:42,07:30,7.80,
12/03/20,00:58,07:43,6.75,
12/03/20,00:48,00:48,9.16,
12/03/19,00:06,06:45,6.64,
12/03/18,10:23,10:25,0.03,
12/03/18,08:09,10:13,2.05,
12/03/18,02:59,07:57,4.97,
12/03/17,07:02,09:30,2.46,
12/03/17,01:15,06:52,5.60,
12/03/16,07:30,07:30,7.5E,
12/03/16,00:43,07:29,6.76,
12/03/15,06:36,07:30,0.89,
12/03/15,01:12,06:24,5.18,
12/03/14,06:29,06:51,0.37,
12/03/14,00:25,06:19,5.89,
12/03/13,00:32,07:45,7.21,
12/03/12,06:33,07:00,0.44,
12/03/12,06:01,06:23,0.37,
12/03/12,22:47,05:50,7.05,
12/03/11,07:05,09:28,2.38,
12/03/11,02:23,06:53,4.49,
12/03/10,10:38,10:38,1.13,
12/03/10,08:38,10:34,1.92,
12/03/10,03:28,08:26,4.97,
12/03/09,07:20,07:20,0.0,
12/03/09,04:57,07:08,2.18,
12/03/09,00:14,04:45,4.50,
12/03/08,05:18,07:00,1.69,
12/03/08,04:58,04:58,0.0,
12/03/08,04:33,04:33,0.0,
12/03/08,01:55,04:21,2.43,
12/03/08,22:23,01:41,3.29,
12/03/07,22:07,22:13,0.10,
12/03/07,05:32,07:21,1.80,
12/03/07,00:55,05:20,4.41,
12/03/06,00:54,07:34,6.67,
12/03/05,06:54,08:05,1.18,
12/03/05,01:03,06:42,5.64,
12/03/04,09:46,09:46,6.11,
12/03/04,09:20,09:44,0.39,
12/03/04,02:31,09:10,6.65,
12/03/03,08:03,08:37,0.55,
12/03/03,00:51,07:53,7.03,
12/03/02,00:39,07:32,6.89,
12/03/01,00:48,07:48,7.00,
12/02/29,23:35,06:40,7.07,
12/02/28,06:47,07:45,0.96,
12/02/28,22:44,06:37,7.88,
12/02/27,07:30,07:53,0.38,
12/02/27,00:08,07:16,7.12,
12/02/26,05:08,08:32,3.40,
12/02/25,02:10,09:36,7.42,
12/02/24,01:21,08:10,6.80,
12/02/23,00:55,08:10,7.25,
12/02/22,01:22,08:21,6.99,
12/02/21,08:12,08:34,0.36,
12/02/21,01:14,08:02,6.80,
12/02/20,00:34,08:00,7.42,
12/02/19,02:06,09:57,7.84,
12/02/18,02:25,10:05,7.65,
12/02/17,00:29,08:00,7.51,
12/02/16,00:47,08:10,7.37,
12/02/15,06:47,08:15,1.45,
12/02/15,01:04,06:37,5.54,
12/02/14,00:17,07:50,7.54,
12/02/13,04:02,08:00,3.96,
12/02/13,23:49,03:47,3.96,
12/02/12,09:38,09:38,6.38,
12/02/12,00:58,09:21,8.39,
12/02/11,01:24,10:42,9.30,
12/02/10,08:28,08:28,0.0,
12/02/10,02:04,08:18,6.22,
12/02/09,00:19,08:00,7.67,
12/02/08,00:24,07:45,7.34,
12/02/07,06:51,07:37,0.77,
12/02/07,04:21,06:41,2.33,
12/02/07,04:11,04:11,6.38,
12/02/07,03:46,04:01,0.24,
12/02/07,03:02,03:36,0.55,
12/02/07,02:16,02:52,0.59,
12/02/07,01:05,01:50,0.74,
12/02/07,22:11,00:55,2.73,
12/02/06,21:49,21:49,0.0,
12/02/06,07:54,08:28,0.56,
12/02/06,07:24,07:44,0.32,
12/02/06,06:29,07:14,0.75,
12/02/06,05:25,06:19,0.89,
12/02/06,03:29,05:15,1.77,
12/02/06,01:35,03:19,1.73,
12/02/06,23:16,01:25,2.14,
12/02/05,22:52,22:52,2.0E,
12/02/05,22:27,22:50,0.37,
12/02/05,22:17,22:17,1.30,
12/02/05,21:39,22:17,0.62,
12/02/05,20:55,21:29,0.56,
12/02/05,19:59,20:42,0.72,
12/02/05,15:51,16:20,0.49,
12/02/05,14:38,15:41,1.04,
12/02/05,13:26,14:28,1.02,
12/02/05,09:51,09:51,9.44,
12/02/05,09:23,09:23,6.94,
12/02/05,07:57,09:18,1.35,
12/02/05,07:07,07:47,0.66,
12/02/05,05:44,06:57,1.21,
12/02/05,01:00,05:30,4.50,
12/02/04,15:36,17:30,1.89,
12/02/04,10:09,10:17,0.13,
12/02/04,08:56,09:58,1.03,
12/02/04,08:13,08:13,0.0,
12/02/04,01:46,07:52,6.10,
12/02/03,23:06,06:15,7.15,
12/02/02,00:59,07:50,6.84,
12/02/01,00:41,08:40,7.97,
12/01/31,00:03,07:30,7.46,
12/01/30,07:17,07:17,8.33,
12/01/30,23:42,07:15,7.54,
12/01/29,05:10,10:28,5.30,
12/01/29,01:44,05:00,3.25,
12/01/28,09:54,09:54,0.01,
12/01/28,02:46,09:44,6.96,
12/01/27,23:24,07:15,7.84,
12/01/26,01:09,07:38,6.47,
12/01/25,00:22,07:50,7.45,
12/01/24,00:43,08:00,7.28,
12/01/23,00:12,07:30,7.30,
12/01/22,01:40,09:23,7.71,
12/01/21,08:17,09:45,1.46,
12/01/21,01:00,08:07,7.12,
12/01/20,00:42,08:00,7.29,
12/01/19,00:33,07:47,7.23,
12/01/18,00:25,07:45,7.32,
12/01/17,07:35,08:31,0.93,
12/01/17,07:17,07:22,0.06,
12/01/17,01:23,07:07,5.74,
12/01/16,00:57,08:38,7.68,
12/01/15,08:29,09:28,0.97,
12/01/15,01:45,08:19,6.56,
12/01/14,00:33,09:00,8.43,
12/01/13,00:00,07:16,7.27,
12/01/12,23:48,07:15,7.45,
12/01/11,23:45,07:15,7.48,
12/01/10,07:26,07:45,0.30,
12/01/10,01:40,07:16,5.60,
12/01/10,00:49,01:29,0.68,
12/01/09,23:56,07:15,7.31,
12/01/08,09:48,09:48,8.61,
12/01/08,02:11,09:37,7.44,
12/01/07,07:32,09:02,1.48,
12/01/07,00:58,07:22,6.39,
12/01/06,00:48,07:45,6.94,
12/01/05,23:49,07:15,7.42,
12/01/04,23:47,07:15,7.47,
12/01/03,00:16,07:15,6.98,
12/01/02,06:07,07:15,1.12,
12/01/02,00:20,05:57,5.61,
12/01/01,23:58,23:58,0.0,
12/01/01,23:22,23:27,0.08,
12/01/01,10:29,10:29,0.0,
12/01/01,07:25,10:19,2.88,
12/01/01,03:06,07:13,4.10,
11/12/31,09:00,10:05,1.09,
11/12/31,02:39,08:49,6.17,
11/12/30,02:05,09:46,7.68,
11/12/29,03:23,10:34,7.19,
11/12/28,01:39,09:30,7.85,
11/12/27,01:42,09:24,7.70,
11/12/26,01:19,08:41,7.36,
11/12/25,08:45,09:06,0.35,
11/12/25,00:38,08:34,7.94,
11/12/24,07:56,09:19,1.38,
11/12/24,01:31,07:46,6.24,
11/12/23,02:09,10:41,8.51,
11/12/23,01:50,01:50,7.5E,
11/12/22,00:52,08:25,7.55,
11/12/21,00:52,07:46,6.90,
11/12/20,02:00,08:45,6.75,
11/12/19,01:09,08:05,6.92,
11/12/18,09:46,10:55,1.13,
11/12/18,02:39,09:36,6.94,
11/12/17,00:56,10:40,9.73,
11/12/16,04:20,09:31,5.18,
11/12/16,00:48,03:24,2.6,
11/12/15,01:08,08:05,6.94,
11/12/14,01:15,08:58,7.71,
11/12/13,01:26,08:15,6.81,
11/12/12,00:45,07:32,6.79,
11/12/11,00:51,08:44,7.87,
11/12/10,07:40,08:37,0.94,
11/12/10,01:04,07:30,6.43,
11/12/09,00:00,08:31,8.52,
11/12/08,05:38,08:44,3.10,
11/12/08,01:15,05:26,4.17,
11/12/07,00:53,09:22,8.48,
11/12/06,08:23,08:40,0.27,
11/12/06,01:16,08:13,6.94,
11/12/05,00:28,08:31,8.05,
11/12/04,00:45,09:11,8.43,
11/12/03,12:11,12:21,0.16,
11/12/03,00:12,05:00,4.80,
11/12/02,04:29,08:43,4.22,
11/12/02,00:40,04:16,3.59,
11/12/01,23:45,07:32,7.77,
11/11/30,04:54,08:00,3.08,
11/11/30,00:13,04:44,4.51,
11/11/29,23:39,08:00,8.35,
11/11/28,23:13,08:00,8.77,
11/11/27,09:00,09:00,8.88,
11/11/27,08:45,08:59,0.23,
11/11/27,06:58,08:35,1.60,
11/11/27,04:13,06:45,2.54,
11/11/26,17:01,17:01,8.61,
11/11/26,16:36,16:56,0.33,
11/11/26,01:28,08:00,6.52,
11/11/25,00:16,07:24,7.13,
11/11/24,00:13,07:49,7.60,
11/11/23,00:11,07:51,7.65,
11/11/22,00:04,08:10,8.09,
11/11/21,00:32,07:57,7.41,
11/11/20,00:35,08:15,7.66,
11/11/19,01:53,09:08,7.24,
11/11/18,23:41,07:36,7.92,
11/11/17,00:31,08:00,7.47,
11/11/16,00:22,08:00,7.63,
11/11/15,00:51,08:11,7.32,
11/11/14,23:56,08:05,8.14,
11/11/13,02:21,09:21,7.00,
11/11/12,00:13,09:33,9.33,
11/11/11,07:21,07:21,0.0,
11/11/11,01:18,07:08,5.83,
11/11/10,00:34,08:15,7.68,
11/11/09,01:26,08:16,6.83,
11/11/08,00:02,08:01,7.98,
11/11/07,23:50,07:15,7.40,
11/11/06,23:35,08:16,8.68,
11/11/05,09:33,09:33,1.13,
11/11/05,01:45,09:19,7.56,
11/11/04,00:30,07:30,7.00,
11/11/03,08:00,08:17,0.27,
11/11/03,01:36,07:50,6.23,
11/11/02,00:32,07:39,7.12,
11/11/01,07:38,07:38,8.61,
11/11/01,00:24,07:35,7.18,
11/10/31,00:25,08:01,7.60,
11/10/30,08:29,08:29,0.0,
11/10/30,02:03,08:18,7.24,
11/10/29,01:04,09:49,8.74,
11/10/28,01:23,08:28,7.08,
11/10/27,08:17,08:17,6.11,
11/10/27,01:40,08:13,6.54,
11/10/26,06:53,06:53,8.61,
11/10/26,04:22,06:44,2.37,
11/10/26,23:14,04:07,4.89,
11/10/25,00:32,06:32,6.0,
11/10/24,01:09,07:09,6.0,
11/10/23,05:24,09:40,4.26,
11/10/23,00:31,05:14,4.70,
11/10/22,06:28,08:57,2.48,
11/10/22,01:21,06:18,4.94,
11/10/21,00:30,07:40,7.16,
11/10/20,07:54,07:54,1.63,
11/10/20,00:13,07:48,7.58,
11/10/19,00:21,07:30,7.14,
11/10/18,03:37,08:00,4.38,
11/10/18,00:28,03:25,2.95,
11/10/17,00:36,07:26,6.84,
11/10/16,08:51,08:51,8.05,
11/10/16,02:22,08:45,6.38,
11/10/15,08:40,09:09,0.47,
11/10/15,00:13,08:26,8.21,
11/10/14,08:42,08:42,1.52,
11/10/14,02:13,08:35,6.36,
11/10/13,02:11,08:37,6.44,
11/10/12,01:29,08:15,6.76,
11/10/11,02:13,08:15,6.02,
11/10/10,00:59,08:15,7.27,
11/10/09,02:15,09:21,7.10,
11/10/08,08:12,08:12,1.5E,
11/10/08,23:46,08:05,8.31,
11/10/07,01:46,09:34,7.80,
11/10/06,05:29,08:15,2.76,
11/10/06,03:36,03:36,0.00,
11/10/06,00:18,03:26,3.12,
11/10/05,09:10,09:56,0.76,
11/10/05,02:10,08:59,6.81,
11/10/04,01:16,08:05,6.81,
11/10/03,23:25,07:40,8.25,
11/10/02,04:16,06:16,2.0,
11/10/01,01:32,09:00,7.46,
11/09/30,01:41,09:10,7.46,
11/09/29,09:45,10:10,0.41,
11/09/29,01:42,09:39,7.95,
11/09/28,01:48,08:15,6.44,
11/09/27,01:30,08:15,6.73,
11/09/26,00:10,07:45,7.59,
11/09/25,02:21,09:40,7.32,
11/09/24,01:56,09:45,7.81,
11/09/23,08:35,09:53,1.31,
11/09/23,01:17,08:24,7.12,
11/09/22,01:02,09:14,8.20,
11/09/21,01:08,08:00,6.85,
11/09/20,22:57,07:16,8.32,
11/09/19,00:14,07:53,7.65,
11/09/18,11:27,11:37,0.17,
11/09/18,04:04,11:12,7.13,
11/09/17,09:39,09:42,0.05,
11/09/17,02:47,09:28,6.69,
11/09/16,01:54,08:40,6.76,
11/09/15,01:40,09:10,7.49,
11/09/14,00:29,07:20,6.85,
11/09/13,01:43,08:15,6.52,
11/09/12,02:22,08:12,5.83,
11/09/11,23:49,08:30,8.67,
11/09/10,10:59,11:12,0.21,
11/09/10,03:00,10:49,7.80,
11/09/09,03:24,10:00,6.59,
11/09/08,02:08,09:00,6.87,
11/09/07,02:11,08:15,6.06,
11/09/06,01:53,08:15,6.36,
11/09/05,03:00,08:15,5.24,
11/09/04,03:06,12:20,9.24,
11/09/03,01:56,08:40,6.73,
11/09/02,01:41,10:48,9.11,
11/09/01,08:34,09:11,0.63,
11/09/01,01:32,08:23,6.84,
11/08/31,02:19,08:09,5.83,
11/08/30,02:09,08:15,6.10,
11/08/29,01:33,08:14,6.68,
11/08/28,02:51,10:42,7.85,
11/08/27,01:50,09:56,8.09,
11/08/26,01:51,09:52,8.02,
11/08/25,03:07,08:57,5.83,
11/08/24,01:05,07:43,6.62,
11/08/23,07:22,07:31,0.15,
11/08/23,02:24,07:11,4.79,
11/08/22,01:08,07:20,6.19,
11/08/21,10:10,11:18,1.13,
11/08/21,01:43,10:00,8.28,
11/08/20,02:07,09:00,6.87,
11/08/19,02:47,07:30,4.71,
11/08/19,01:17,02:37,1.32,
11/08/18,02:31,09:00,6.47,
11/08/17,08:15,09:15,1.0,
11/08/17,01:50,08:00,6.15,
11/08/16,01:13,08:15,7.02,
11/08/15,00:30,07:04,6.56,
11/08/14,09:15,12:18,3.04,
11/08/14,02:22,09:03,6.68,
11/08/13,02:34,10:05,7.51,
11/08/12,02:13,09:22,7.14,
11/08/11,09:47,10:08,0.34,
11/08/11,03:00,09:37,6.61,
11/08/10,00:46,08:15,7.48,
11/08/09,01:15,08:03,6.80,
11/08/08,00:46,08:15,7.48,
11/08/07,10:12,10:12,1.88,
11/08/07,09:46,10:07,0.35,
11/08/07,09:09,09:36,0.44,
11/08/07,02:03,08:59,6.93,
11/08/06,01:08,08:52,7.73,
11/08/05,08:07,09:55,1.78,
11/08/05,02:06,07:57,5.85,
11/08/04,09:16,10:01,0.75,
11/08/04,03:12,09:06,5.90,
11/08/03,01:28,08:15,6.77,
11/08/02,01:38,08:16,6.62,
11/08/01,02:12,08:30,6.30,
11/07/31,08:59,09:05,0.10,
11/07/31,07:09,08:49,1.67,
11/07/31,05:27,06:58,1.52,
11/07/31,00:09,05:16,5.12,
11/07/30,02:19,10:30,8.19,
11/07/29,01:24,10:50,9.42,
11/07/28,09:36,09:43,0.11,
11/07/28,02:42,09:26,6.73,
11/07/27,02:15,08:14,5.97,
11/07/26,01:25,08:15,6.82,
11/07/25,02:14,08:15,6.01,
11/07/24,03:00,11:00,8.00,
11/07/24,02:48,02:48,6.38,
11/07/23,04:24,11:10,6.76,
11/07/22,01:51,09:35,7.72,
11/07/21,02:17,09:16,6.98,
11/07/20,01:32,08:09,6.61,
11/07/19,02:02,08:15,6.21,
11/07/18,06:23,08:15,1.85,
11/07/18,23:58,06:11,6.22,
11/07/17,02:18,10:46,8.46,
11/07/16,02:26,09:30,7.05,
11/07/15,09:19,09:19,1.30,
11/07/15,02:01,09:12,7.18,
11/07/14,01:16,10:07,8.84,
11/07/13,02:49,08:15,5.42,
11/07/12,17:33,17:53,0.33,
11/07/12,02:24,08:51,6.44,
11/07/11,01:57,08:15,6.29,
11/07/10,09:41,09:41,1.41,
11/07/10,02:42,09:24,6.69,
11/07/09,02:41,10:54,8.20,
11/07/08,08:39,10:39,2.01,
11/07/08,08:22,08:29,0.11,
11/07/08,05:34,08:12,2.63,
11/07/08,01:50,05:13,3.38,
11/07/07,09:03,09:07,0.05,
11/07/07,02:09,08:53,6.72,
11/07/06,00:20,08:15,7.90,
11/07/05,02:12,08:15,6.04,
11/07/04,01:32,08:15,6.71,
11/07/03,03:11,09:53,6.69,
11/07/02,01:14,08:50,7.59,
11/07/01,09:04,10:17,1.21,
11/07/01,08:54,08:54,1.5E,
11/07/01,02:25,08:45,6.33,
11/07/01,02:01,02:10,0.15,
11/06/30,08:44,09:00,0.25,
11/06/30,01:03,08:34,7.51,
11/06/29,06:52,07:40,0.80,
11/06/29,00:06,06:40,6.55,
11/06/28,01:35,09:00,7.41,
11/06/27,01:10,08:15,7.08,
11/06/26,19:15,19:50,0.58,
11/06/26,09:30,09:43,0.22,
11/06/26,09:05,09:19,0.24,
11/06/26,08:37,08:55,0.29,
11/06/26,02:41,08:27,5.75,
11/06/25,02:06,10:12,8.09,
11/06/24,00:34,08:00,7.42,
11/06/23,03:12,08:15,5.04,
11/06/23,00:48,03:00,2.20,
11/06/22,00:52,08:15,7.37,
11/06/21,01:09,08:15,7.09,
11/06/20,01:26,08:15,6.80,
11/06/19,10:25,10:50,0.41,
11/06/19,02:16,10:22,8.09,
11/06/18,00:14,09:15,9.00,
11/06/17,01:17,08:15,6.95,
11/06/16,01:49,08:50,7.01,
11/06/15,00:45,07:30,6.75,
11/06/14,01:54,08:30,6.59,
11/06/13,01:53,10:38,8.74,
11/06/12,10:25,10:44,0.30,
11/06/12,07:51,10:15,2.39,
11/06/12,03:38,07:39,4.01,
11/06/11,01:00,09:00,8.00,
11/06/10,01:17,08:30,7.22,
11/06/09,00:36,08:00,7.39,
11/06/08,00:19,08:15,7.93,
11/06/07,01:28,08:15,6.77,
11/06/06,08:36,11:17,2.69,
11/06/06,02:24,08:15,5.84,
11/06/05,08:50,09:00,0.16,
11/06/05,01:00,08:46,7.77,
11/06/04,09:19,09:19,9.44,
11/06/04,01:00,09:15,8.23,
11/06/03,09:10,09:30,0.33,
11/06/03,08:47,09:06,0.31,
11/06/03,06:33,08:45,2.19,
11/06/03,01:22,06:23,5.01,
11/06/02,01:07,09:26,8.31,
11/06/01,07:40,07:50,0.16,
11/06/01,01:21,07:25,6.06,
11/05/31,01:12,08:15,7.05,
11/05/30,00:43,08:00,7.28,
11/05/29,02:39,10:44,8.09,
11/05/28,02:14,10:07,7.87,
11/05/27,09:20,09:33,0.21,
11/05/27,07:47,09:15,1.45,
11/05/27,02:08,07:36,5.45,
11/05/26,17:59,18:12,0.22,
11/05/26,01:38,08:15,6.61,
11/05/25,01:20,08:15,6.90,
11/05/24,02:03,07:50,5.78,
11/05/23,00:26,08:00,7.56,
11/05/22,09:36,09:40,0.06,
11/05/22,02:13,09:26,7.22,
11/05/21,01:52,09:53,8.02,
11/05/20,08:50,09:35,0.75,
11/05/20,01:35,08:40,7.07,
11/05/19,01:19,08:15,6.93,
11/05/18,07:37,08:00,0.38,
11/05/18,00:57,07:10,6.21,
11/05/17,09:13,09:13,1.38,
11/05/17,02:34,08:59,6.41,
11/05/16,09:30,10:20,0.83,
11/05/16,08:50,09:15,0.41,
11/05/16,02:38,08:39,6.01,
11/05/15,08:15,08:45,0.5,
11/05/15,01:28,08:11,6.71,
11/05/14,03:22,09:17,5.91,
11/05/13,10:18,10:38,0.33,
11/05/13,07:52,10:08,2.25,
11/05/13,02:31,07:38,5.12,
11/05/12,07:00,08:00,0.99,
11/05/12,00:10,06:49,6.64,
11/05/11,00:12,06:20,6.14,
11/05/10,16:55,17:10,0.25,
11/05/10,01:27,08:15,6.79,
11/05/09,01:00,08:00,7.00,
11/05/08,07:10,08:10,1.0,
11/05/08,04:09,07:01,2.87,
11/05/08,01:01,03:59,2.96,
11/05/07,01:39,10:17,8.63,
11/05/06,22:42,07:54,9.18,
11/05/05,01:07,08:08,7.01,
11/05/04,01:40,08:30,6.82,
11/05/03,01:40,07:42,6.03,
11/05/02,00:35,07:13,6.63,
11/05/01,07:57,09:46,1.81,
11/05/01,02:18,07:46,5.47,
11/04/30,00:32,08:44,8.20,
11/04/29,03:14,09:43,6.48,
11/04/28,01:14,07:46,6.52,
11/04/27,01:14,07:24,6.15,
11/04/26,23:26,06:28,7.03,
11/04/25,02:16,09:49,7.55,
11/04/24,10:33,10:47,0.24,
11/04/24,09:35,10:23,0.79,
11/04/24,03:38,09:24,5.77,
11/04/23,15:10,15:30,0.33,
11/04/23,04:26,10:06,5.66,
11/04/22,18:33,18:43,0.16,
11/04/22,09:00,09:37,0.61,
11/04/22,08:37,08:54,0.28,
11/04/22,07:54,08:10,0.27,
11/04/22,00:26,07:43,7.28,
11/04/21,09:03,09:03,1.91,
11/04/21,02:12,09:00,6.79,
11/04/20,07:21,08:54,1.54,
11/04/20,03:00,07:11,4.18,
11/04/19,08:30,09:05,0.58,
11/04/19,00:46,08:17,7.50,
11/04/18,00:06,07:56,7.84,
11/04/17,00:28,08:14,7.77,
11/04/16,14:00,14:20,0.33,
11/04/16,02:45,09:47,7.02,
11/04/15,05:43,10:34,4.84,
11/04/15,01:45,05:31,3.76,
11/04/14,08:57,08:57,1.88,
11/04/14,08:34,08:55,0.35,
11/04/14,01:28,08:24,6.93,
11/04/13,01:42,08:10,6.47,
11/04/12,02:46,09:24,6.62,
11/04/11,02:26,08:10,5.74,
11/04/10,02:49,09:49,6.99,
11/04/09,08:35,09:32,0.95,
11/04/09,02:09,08:25,6.27,
11/04/08,07:09,07:39,0.5,
11/04/08,06:12,07:08,0.92,
11/04/08,00:21,06:02,5.68,
11/04/07,01:03,08:16,7.21,
11/04/06,01:37,08:03,6.43,
11/04/05,01:27,08:16,6.81,
11/04/04,00:43,08:00,7.28,
11/04/03,01:37,09:38,8.00,
11/04/02,08:25,08:45,0.33,
11/04/02,01:17,08:21,7.07,
11/04/01,01:08,09:26,8.28,
11/03/31,01:21,08:00,6.65,
11/03/30,07:30,07:59,0.48,
11/03/30,01:31,07:13,5.70,
11/03/29,00:41,07:59,7.29,
11/03/28,00:49,07:56,7.13,
11/03/27,07:32,08:36,1.06,
11/03/27,04:34,07:16,2.71,
11/03/27,22:23,04:18,4.92,
11/03/26,02:30,09:30,6.99,
11/03/25,01:24,08:19,6.91,
11/03/24,01:41,08:00,6.31,
11/03/23,01:06,07:44,6.62,
11/03/22,07:19,07:31,0.20,
11/03/22,04:38,07:04,2.43,
11/03/22,23:46,04:15,4.48,
11/03/21,23:58,07:46,7.79,
11/03/20,09:53,09:57,0.06,
11/03/20,08:49,09:37,0.80,
11/03/20,08:05,08:33,0.47,
11/03/20,01:49,07:50,6.01,
11/03/19,09:45,09:45,1.97,
11/03/19,03:32,09:34,6.04,
11/03/18,18:20,18:45,0.41,
11/03/18,18:04,18:14,0.16,
11/03/18,01:41,08:07,6.43,
11/03/17,00:14,08:03,7.82,
11/03/16,07:04,07:40,0.6,
11/03/16,02:24,06:54,4.50,
11/03/15,23:47,07:46,7.98,
11/03/14,02:41,08:18,5.62,
11/03/13,09:53,10:25,0.53,
11/03/13,09:14,09:43,0.48,
11/03/13,08:13,08:51,0.63,
11/03/13,02:39,08:00,5.35,
11/03/12,08:15,09:00,0.75,
11/03/12,00:12,07:56,7.72,
11/03/11,01:28,08:08,6.65,
11/03/10,02:07,07:18,5.19,
11/03/09,00:51,07:39,6.80,
11/03/08,01:05,07:43,6.62,
11/03/07,00:40,08:02,7.36,
11/03/06,09:50,10:30,0.66,
11/03/06,09:33,09:42,0.15,
11/03/06,08:13,09:23,1.15,
11/03/06,02:02,07:56,5.89,
11/03/05,08:03,08:27,0.40,
11/03/05,01:05,07:53,6.79,
11/03/04,00:02,07:35,7.54,
11/03/03,02:08,06:57,4.81,
11/03/02,01:37,06:35,4.96,
11/03/01,23:59,07:53,7.90,
11/02/28,23:52,07:45,7.88,
11/02/27,02:20,10:06,7.78,
11/02/26,04:09,10:44,6.59,
11/02/25,02:11,09:37,7.43,
11/02/24,01:27,07:40,6.21,
11/02/23,04:07,08:15,4.13,
11/02/23,00:54,03:54,3.00,
11/02/22,01:05,07:25,6.33,
11/02/21,00:14,07:29,7.24,
11/02/20,02:14,09:22,7.13,
11/02/19,00:56,09:33,8.62,
11/02/18,07:27,08:10,0.71,
11/02/18,02:26,07:17,4.86,
11/02/17,02:19,08:12,5.87,
11/02/17,00:38,02:06,1.46,
11/02/16,08:12,08:12,2.77,
11/02/16,23:02,08:05,9.04,
11/02/15,00:36,07:43,7.11,
11/02/14,23:13,07:04,7.86,
11/02/13,09:08,10:08,1.0,
11/02/13,00:59,09:00,8.01,
11/02/12,03:20,09:10,5.83,
11/02/12,00:00,02:30,2.5,
11/02/11,00:50,08:15,7.41,
11/02/10,00:29,07:35,7.10,
11/02/09,00:53,07:30,6.62,
11/02/08,00:44,07:45,7.02,
11/02/07,00:08,07:25,7.28,
11/02/06,09:29,09:29,3.88,
11/02/06,00:53,09:14,8.34,
11/02/05,09:31,10:26,0.90,
11/02/05,02:37,09:19,6.71,
11/02/04,02:33,08:14,5.68,
11/02/03,16:38,16:48,0.16,
11/02/03,23:49,07:07,7.30,
11/02/02,23:45,07:32,7.78,
11/02/01,03:54,08:03,4.14,
11/01/31,20:36,23:53,3.29,
11/01/31,03:57,08:32,4.58,
11/01/30,01:27,09:45,8.30,
11/01/29,03:43,10:46,7.05,
11/01/28,02:12,08:30,6.3,
11/01/27,01:45,08:19,6.57,
11/01/26,01:45,07:41,5.93,
11/01/25,00:54,07:42,6.79,
11/01/24,02:16,08:21,6.08,
11/01/23,01:38,09:41,8.04,
11/01/22,07:13,09:03,1.83,
11/01/22,00:28,07:00,6.52,
11/01/21,08:00,08:30,0.5,
11/01/21,01:10,07:24,6.23,
11/01/20,07:02,07:56,0.90,
11/01/20,23:27,06:50,7.38,
11/01/19,01:05,07:49,6.73,
11/01/18,23:39,06:44,7.08,
11/01/17,00:12,07:27,7.25,
11/01/16,02:31,09:39,7.13,
11/01/15,01:32,08:44,7.20,
11/01/14,23:43,07:00,7.28,
11/01/13,22:58,06:30,7.53,
11/01/12,02:18,05:43,3.41,
11/01/12,22:06,02:04,3.97,
11/01/11,22:30,03:49,5.31,
11/01/10,21:58,05:26,7.47,
11/01/09,02:45,08:41,5.93,
11/01/08,17:28,22:30,5.03,
11/01/08,00:00,04:00,4.0,
11/01/07,02:30,08:48,6.3,
11/01/06,23:38,08:08,8.50,
11/01/05,01:11,06:30,5.31,
11/01/04,01:10,08:10,6.99,
11/01/03,02:50,08:30,5.66,
11/01/02,01:56,08:35,6.65,
11/01/01,02:38,08:59,6.34,
10/12/31,07:10,08:50,1.66,
10/12/31,00:48,07:54,7.10,
10/12/30,01:39,08:26,6.78,
10/12/29,02:13,09:05,6.88,
10/12/28,02:03,08:43,6.66,
10/12/27,03:16,08:33,5.27,
10/12/26,04:14,08:28,4.23,
10/12/25,03:30,10:34,7.07,
10/12/24,02:11,07:54,5.72,
10/12/23,00:38,08:21,7.71,
10/12/22,06:52,07:52,1.0,
10/12/22,03:19,05:52,2.55,
10/12/21,00:30,06:47,6.28,
10/12/20,22:49,06:31,7.70,
10/12/19,16:00,17:00,1.0,
10/12/19,14:00,14:30,0.5,
10/12/19,00:10,01:36,1.43,
10/12/18,02:14,09:33,7.31,
10/12/17,07:25,10:03,2.64,
10/12/17,02:52,07:12,4.33,
10/12/16,00:26,08:09,7.71,
10/12/15,02:16,05:36,3.33,
10/12/14,01:37,09:44,8.12,
10/12/13,05:49,08:49,3.00,
10/12/13,23:56,05:30,5.56,
10/12/12,01:20,08:49,7.48,
10/12/11,00:44,08:26,7.69,
10/12/10,05:59,08:06,2.12,
10/12/10,23:52,05:40,5.8,
10/12/09,06:47,08:56,2.14,
10/12/09,04:30,06:37,2.10,
10/12/09,23:46,04:18,4.53,
10/12/08,23:58,06:23,6.42,
10/12/07,00:57,07:11,6.23,
10/12/06,22:58,06:11,7.21,
10/12/05,06:20,07:45,1.41,
10/12/05,23:45,06:16,6.52,
10/12/04,07:12,07:12,5.55,
10/12/04,01:01,06:58,5.94,
10/12/03,06:45,07:27,0.7,
10/12/03,00:26,06:20,5.90,
10/12/02,21:25,21:40,0.25,
10/12/02,20:48,21:22,0.55,
10/12/02,13:20,14:00,0.66,
10/12/02,02:05,05:56,3.85,
10/12/01,04:00,07:00,3.0,
10/11/30,01:58,08:35,6.61,
10/11/29,02:02,08:11,6.15,
10/11/28,01:04,10:38,9.56,
10/11/27,02:13,08:45,6.53,
10/11/26,01:35,08:10,6.58,
10/11/25,01:12,08:12,6.98,
10/11/24,02:57,10:03,7.08,
10/11/23,01:11,08:00,6.81,
10/11/22,00:20,07:41,7.35,
10/11/21,01:18,10:00,8.68,
10/11/20,02:33,10:03,7.49,
10/11/19,00:45,07:22,6.60,
10/11/18,22:36,07:20,8.73,
10/11/17,01:20,07:34,6.23,
10/11/16,00:55,08:01,7.09,
10/11/15,00:28,08:05,7.61,
10/11/14,00:56,09:14,8.29,
10/11/13,01:42,08:26,6.73,
10/11/12,09:10,09:50,0.66,
10/11/12,02:28,09:05,6.62,
10/11/11,00:44,07:52,7.14,
10/11/10,01:02,08:00,6.96,
10/11/09,01:08,07:50,6.69,
10/11/08,00:56,08:04,7.13,
10/11/07,03:19,09:34,6.24,
10/11/06,03:04,09:04,6.01,
10/11/05,00:50,07:30,6.66,
10/11/04,06:14,08:14,2.00,
10/11/04,00:09,06:10,6.02,
10/11/03,05:51,07:53,2.03,
10/11/03,00:06,05:48,5.69,
10/11/02,01:31,08:35,7.07,
10/11/01,23:11,07:32,8.34,
10/10/31,02:10,09:32,7.35,
10/10/30,01:37,10:02,8.40,
10/10/29,09:03,09:45,0.69,
10/10/29,03:14,09:00,5.77,
10/10/28,23:43,07:57,8.24,
10/10/27,01:16,08:04,6.79,
10/10/26,01:26,07:58,6.52,
10/10/25,00:10,07:55,7.75,
10/10/24,09:36,10:42,1.09,
10/10/24,02:31,09:31,7.00,
10/10/23,01:50,09:26,7.59,
10/10/22,08:31,10:34,2.04,
10/10/22,03:14,08:28,5.23,
10/10/21,01:53,08:13,6.32,
10/10/20,08:32,08:32,0.00,
10/10/20,01:04,08:09,7.09,
10/10/19,01:19,08:13,6.89,
