Date, Sleep Time, Wake Time, Hours,Note
13/06/23,10:08,10:40,0.53,
13/06/23,01:32,09:58,8.42,
13/06/22,09:14,09:14,0.0,
13/06/22,08:54,09:11,0.28,
13/06/22,08:44,08:44,2.77,
13/06/22,08:33,08:44,0.18,
13/06/22,04:05,08:23,4.29,
13/06/21,04:08,09:02,4.90,
13/06/21,01:10,03:58,2.80,
13/06/20,08:32,08:47,0.24,
13/06/20,01:24,08:22,6.96,
13/06/19,03:45,06:03,2.29,
13/06/19,23:18,03:35,4.27,
13/06/18,23:08,23:08,0.0,
13/06/18,19:18,19:18,0.0,
13/06/18,18:13,19:13,1.00,
13/06/18,17:43,18:03,0.32,
13/06/18,16:43,16:43,0.0,
13/06/18,16:22,16:22,0.0,
13/06/18,15:20,16:16,0.93,
13/06/18,14:58,14:58,0.0,
13/06/18,14:54,14:54,0.00,
13/06/18,14:10,14:38,0.46,sick
13/06/18,14:00,14:00,0.0,
13/06/18,13:02,13:55,0.87,
13/06/18,12:15,12:52,0.62,
13/06/18,12:05,12:05,0.0,
13/06/18,06:54,07:48,0.88,
13/06/18,00:34,06:44,6.17,
13/06/17,17:15,17:25,0.16,sleeping in the sun
13/06/17,23:52,06:00,6.12,
13/06/16,09:20,09:30,0.16,
13/06/16,03:46,09:15,5.48,
13/06/16,00:33,03:34,3.00,
13/06/15,09:17,10:17,1.0,
13/06/15,08:32,09:12,0.66,
13/06/15,03:38,08:27,4.81,
13/06/15,00:40,03:33,2.88,
13/06/14,23:42,05:52,6.17,
13/06/13,00:18,05:58,5.65,
13/06/12,06:49,09:09,2.33,
13/06/12,02:24,06:30,4.09,
13/06/12,00:03,01:52,1.82,coughing
13/06/11,15:35,15:50,0.25,sleeping in the sun
13/06/11,00:03,06:30,6.45,
13/06/10,23:52,23:52,0.0,
13/06/10,02:19,06:30,4.19,
13/06/10,01:57,01:57,0.0,
13/06/10,01:46,01:46,0.0,
13/06/10,01:45,01:45,0.0,
13/06/10,01:19,01:19,0.0,
13/06/10,01:12,01:12,0.0,
13/06/10,01:06,01:06,0.0,coughing
13/06/10,00:17,01:01,0.74,
13/06/09,23:59,23:59,0.0,
13/06/09,10:08,10:37,0.47,
13/06/09,02:33,09:54,7.34,
13/06/09,02:22,02:22,0.0,
13/06/09,02:10,02:10,0.0,
13/06/09,02:06,02:06,0.0,
13/06/08,09:31,10:55,1.40,
13/06/08,07:28,09:15,1.77,
13/06/08,02:10,07:18,5.13,
13/06/08,01:58,01:58,5.98,
13/06/07,09:36,09:40,0.05,
13/06/07,09:03,09:26,0.38,
13/06/07,08:29,08:53,0.41,
13/06/07,04:24,08:18,3.90,
13/06/07,03:59,03:59,0.0,
13/06/07,00:22,02:04,1.7,coughing
13/06/07,00:04,00:04,0.0,
13/06/06,08:28,10:48,2.34,
13/06/06,02:23,08:16,5.88,
13/06/05,08:38,09:30,0.86,
13/06/05,04:19,08:28,4.16,
13/06/05,00:27,04:07,3.66,
13/06/04,08:46,08:46,0.0,
13/06/04,08:20,08:42,0.37,
13/06/04,06:28,08:09,1.68,
13/06/04,03:10,06:18,3.13,
13/06/04,00:57,02:58,2.01,Sick
13/06/04,23:14,00:45,1.50,
13/06/03,15:00,15:15,0.25,At the NIH bench
13/06/03,04:56,06:00,1.05,
13/06/03,04:44,04:44,0.0,
13/06/03,23:56,04:43,4.77,
13/06/02,08:08,08:08,0.0,
13/06/02,01:10,08:05,6.92,
13/06/01,07:07,08:54,1.79,
13/06/01,03:16,06:57,3.68,
13/06/01,23:54,03:06,3.20,
13/05/31,08:38,08:38,0.0,
13/05/31,07:58,08:35,0.60,
13/05/31,03:01,07:48,4.78,
13/05/30,08:52,09:52,1.00,
13/05/30,07:50,08:42,0.86,
13/05/30,07:38,07:38,0.0,
13/05/30,01:31,07:37,6.09,
13/05/29,23:47,06:00,6.21,
13/05/28,23:37,23:37,0.0,
13/05/28,05:31,05:31,0.0,
13/05/28,23:50,05:27,5.61,
13/05/27,05:56,07:16,1.34,
13/05/27,23:58,05:46,5.79,
13/05/26,06:20,09:15,2.91,
13/05/26,06:09,06:09,0.0,
13/05/26,02:46,06:07,3.34,
13/05/25,07:55,09:33,1.62,
13/05/25,01:27,07:43,6.26,
13/05/24,08:54,09:49,0.90,
13/05/24,03:00,08:42,5.69,
13/05/23,05:43,09:21,3.64,
13/05/23,01:15,05:30,4.24,
13/05/22,05:33,05:33,0.0,
13/05/22,00:20,05:30,5.16,
13/05/21,05:01,06:00,0.98,crap sleep. very [urolig]. dinner: minced meat and 1664 beer.
13/05/21,23:48,04:51,5.04,
13/05/20,09:20,09:55,0.58,
13/05/20,04:14,09:16,5.03,
13/05/20,01:18,04:01,2.71,
13/05/19,06:34,10:17,3.70,
13/05/19,01:07,06:22,5.23,
13/05/19,00:56,00:56,0.0,
13/05/18,06:59,08:54,1.92,
13/05/18,06:46,06:46,0.0,
13/05/18,00:59,06:42,5.71,
13/05/17,08:57,10:27,1.49,
13/05/17,05:32,08:47,3.23,
13/05/17,01:40,05:20,3.67,
13/05/16,05:58,08:15,2.27,
13/05/16,01:27,05:45,4.31,
13/05/15,01:08,06:00,4.86,
13/05/15,21:51,00:55,3.06,
13/05/14,04:41,06:00,1.30,
13/05/14,00:22,04:31,4.15,
13/05/13,00:07,06:00,5.88,
13/05/12,23:57,23:57,0.0,
13/05/12,10:48,10:48,0.0,
13/05/12,07:38,10:46,3.14,
13/05/12,04:01,07:25,3.40,
13/05/11,08:53,10:28,1.58,
13/05/11,02:02,08:43,6.68,
13/05/10,17:05,17:25,0.33,bardufoss - oslo
13/05/10,09:30,10:00,0.5,dy330 oslo bardufoss
13/05/10,00:12,06:15,6.05,
13/05/10,00:02,00:02,0.0,
13/05/09,02:23,10:02,7.65,
13/05/08,23:03,06:00,6.94,
13/05/07,00:17,06:00,5.72,
13/05/06,01:57,06:00,4.05,
13/05/06,01:29,01:29,0.0,
13/05/06,01:19,01:19,0.0,
13/05/06,01:01,01:01,0.0,
13/05/06,23:33,00:50,1.28,neighbour smoking, woke up
13/05/05,06:56,09:54,2.96,
13/05/05,02:27,06:43,4.27,
13/05/04,07:19,09:37,2.29,
13/05/04,01:29,07:06,5.61,
13/05/03,00:30,09:11,8.68,
13/05/02,04:37,04:37,0.0,
13/05/02,04:27,04:27,0.0,dinner: meat (koteletter x2) drink: red stripe
13/05/02,04:17,04:17,0.0,
13/05/02,03:46,04:10,0.40,
13/05/02,02:12,03:36,1.40,
13/05/02,23:42,02:02,2.33,
13/05/01,08:34,09:06,0.53,
13/05/01,01:00,08:23,7.38,
13/04/30,05:31,06:00,0.48,
13/04/30,23:37,05:18,5.68,
13/04/29,23:02,06:00,6.96,
13/04/28,00:57,09:41,8.73,best sleep in ages
13/04/27,00:50,09:07,8.28,
13/04/26,05:48,08:27,2.64,
13/04/26,00:38,05:36,4.96,
13/04/25,01:05,06:00,4.91,
13/04/25,23:22,00:55,1.55,
13/04/24,00:11,07:00,6.81,
13/04/24,00:01,00:01,0.0,
13/04/23,05:00,06:00,0.99,
13/04/23,23:36,04:47,5.18,
13/04/22,05:26,05:26,0.0,
13/04/22,05:16,05:16,0.0,
13/04/22,05:03,05:03,0.0,
13/04/22,00:11,04:50,4.65,did I wake up crazy early due to the late fish dinner?
13/04/22,00:01,00:01,0.0,
13/04/21,02:31,09:49,7.29,
13/04/20,08:16,10:36,2.32,
13/04/20,06:23,07:52,1.47,
13/04/20,00:56,06:11,5.23,
13/04/19,07:45,07:49,0.07,
13/04/19,07:34,07:34,0.0,
13/04/19,06:44,07:28,0.73,
13/04/19,06:34,06:34,0.0,
13/04/19,01:23,06:32,5.14,
13/04/18,07:57,08:15,0.29,
13/04/18,07:45,07:47,0.02,
13/04/18,01:38,07:32,5.90,
13/04/17,01:45,06:00,4.25,
13/04/17,23:14,01:33,2.30,
13/04/16,22:56,06:00,7.06,
13/04/15,04:22,06:00,1.63,
13/04/15,22:59,04:10,5.18,
13/04/14,06:17,08:05,1.81,
13/04/14,23:51,06:03,6.20,
13/04/13,00:10,07:01,6.85,
13/04/12,23:31,23:57,0.43,
13/04/12,23:21,23:21,0.0,
13/04/12,08:02,08:56,0.90,
13/04/12,07:17,07:52,0.58,
13/04/12,06:27,07:06,0.66,
13/04/12,23:23,06:17,6.89,
13/04/11,07:21,08:30,1.15,
13/04/11,02:01,07:11,5.15,
13/04/10,08:22,08:22,0.0,
13/04/10,06:15,08:20,2.08,
13/04/10,04:53,06:05,1.20,
13/04/10,00:17,04:40,4.38,
13/04/09,03:49,06:00,2.18,
13/04/09,23:50,03:36,3.76,
13/04/08,23:51,06:00,6.14,
13/04/07,00:44,08:15,7.52,
13/04/06,00:22,07:37,7.24,
13/04/05,07:05,08:25,1.32,
13/04/05,00:37,06:53,6.25,
13/04/04,23:22,06:00,6.62,
13/04/03,23:12,06:00,6.80,
13/04/02,06:10,06:30,0.32,
13/04/02,23:37,06:00,6.38,
13/04/01,00:52,08:00,7.13,
13/03/31,23:51,07:59,7.12,
13/03/30,08:28,09:25,0.94,
13/03/30,02:14,08:17,6.06,
13/03/30,01:55,02:03,0.13,
13/03/29,01:08,08:30,7.35,
13/03/29,00:58,00:58,0.0,
13/03/28,07:45,08:16,0.52,
13/03/28,07:33,07:33,0.0,
13/03/28,07:21,07:21,0.0,
13/03/28,01:49,07:11,5.36,woke up due to neighbour smoking
13/03/27,01:53,08:29,6.60,
13/03/26,09:22,10:31,1.14,
13/03/26,03:19,09:10,5.84,
13/03/25,08:14,08:43,0.48,
13/03/25,03:54,08:04,4.15,
13/03/25,00:23,03:42,3.31,
13/03/24,15:20,15:35,0.25,
13/03/24,08:23,08:56,0.55,
13/03/24,00:31,08:08,7.60,
13/03/23,06:19,09:04,2.74,
13/03/23,01:09,06:07,4.97,
13/03/22,10:47,10:47,0.0,
13/03/22,10:35,10:35,0.0,
13/03/22,07:50,09:00,1.16,
13/03/22,03:11,07:26,4.25,After party, with some alcohol.
13/03/22,03:00,03:00,0.0,
13/03/21,05:20,06:10,0.83,
13/03/21,22:43,05:07,6.40,
13/03/20,22:32,22:32,0.0,
13/03/20,07:00,07:30,0.5,flight to Riga
13/03/20,03:05,04:00,0.91,Going to Riga
13/03/20,02:55,02:55,0.0,
13/03/20,01:01,02:54,1.88,
13/03/20,23:58,00:51,0.88,
13/03/19,23:33,23:33,0.0,
13/03/19,07:07,09:30,2.38,
13/03/19,23:58,06:53,6.92,
13/03/18,03:24,06:15,2.85,
13/03/18,23:54,03:11,3.29,
13/03/17,07:20,09:33,2.21,
13/03/17,06:36,06:36,0.0,
13/03/17,06:15,06:15,0.0,
13/03/17,05:58,05:58,0.0,
13/03/17,00:09,05:45,5.60,
13/03/16,09:14,10:37,1.38,
13/03/16,05:23,09:03,3.66,
13/03/16,04:41,04:48,0.11,
13/03/16,01:25,04:27,3.03,
13/03/15,06:42,09:08,2.43,
13/03/15,05:41,05:41,0.0,
13/03/15,05:27,05:27,0.0,
13/03/15,05:02,05:25,0.37,
13/03/15,00:33,04:52,4.32,
13/03/14,01:21,09:19,7.96,
13/03/13,07:59,08:09,0.16,
13/03/13,00:58,07:49,6.85,
13/03/12,00:50,07:04,6.22,
13/03/11,08:04,09:05,1.01,
13/03/11,07:46,07:52,0.09,
13/03/11,00:42,07:46,7.06,
13/03/10,00:17,08:53,8.6,
13/03/09,06:16,08:18,2.04,
13/03/09,23:27,06:06,6.64,
13/03/08,23:56,07:45,7.81,
13/03/07,07:16,08:11,0.90,
13/03/07,00:52,07:06,6.23,
13/03/06,00:31,07:45,7.23,
13/03/05,07:02,08:25,1.38,
13/03/05,02:36,06:52,4.27,
13/03/05,00:49,02:23,1.56,
13/03/04,00:19,07:30,7.18,too short, otherwise great
13/03/03,09:21,09:34,0.22,
13/03/03,08:03,09:11,1.12,
13/03/03,05:58,07:53,1.91,
13/03/03,05:46,05:46,0.0,
13/03/03,00:50,05:42,4.87,
13/03/02,07:33,08:35,1.02,
13/03/02,07:23,07:23,0.0,
13/03/02,07:17,07:17,0.0,
13/03/02,01:51,07:09,5.29,
13/03/01,08:10,08:35,0.41,
13/03/01,06:38,08:00,1.35,
13/03/01,01:36,06:26,4.83,
13/02/28,01:01,08:01,6.99,
13/02/27,06:06,07:31,1.41,
13/02/27,01:20,05:56,4.59,
13/02/26,07:20,08:30,1.17,
13/02/26,01:46,07:10,5.39,
13/02/25,07:41,08:03,0.36,
13/02/25,01:43,07:30,5.79,
13/02/24,08:36,09:00,0.39,
13/02/24,06:45,08:25,1.65,
13/02/24,01:43,06:33,4.83,
13/02/23,09:08,10:41,1.55,
13/02/23,06:47,08:58,2.18,
13/02/23,01:14,06:34,5.33,
13/02/22,06:00,07:25,1.42,
13/02/22,23:47,05:47,6.00,
13/02/21,05:55,07:25,1.5,
13/02/21,01:19,05:45,4.43,
13/02/20,08:30,08:50,0.33,
13/02/20,05:00,08:18,3.30,
13/02/20,01:25,04:50,3.41,
13/02/19,00:54,07:01,6.10,
13/02/18,06:05,08:05,1.99,
13/02/18,01:04,05:53,4.81,
13/02/18,00:54,00:54,0.0,
13/02/18,00:47,00:47,0.0,
13/02/17,08:01,09:15,1.23,
13/02/17,01:06,07:51,6.74,
13/02/16,08:30,08:40,0.16,
13/02/16,07:46,07:46,0.0,
13/02/16,00:43,07:38,6.91,
13/02/15,07:15,08:35,1.33,
13/02/15,07:02,07:02,0.0,
13/02/15,01:13,07:00,5.79,
13/02/14,00:29,07:31,7.03,
13/02/13,05:59,08:05,2.10,
13/02/13,04:13,05:49,1.60,
13/02/13,00:18,04:03,3.74,
13/02/13,23:59,00:08,0.14,
13/02/12,06:47,07:58,1.17,
13/02/12,05:27,06:37,1.16,
13/02/12,04:14,04:14,0.0,
13/02/12,23:52,04:01,4.14,
13/02/11,23:36,23:36,0.0,
13/02/11,06:47,08:05,1.30,
13/02/11,06:09,06:37,0.46,
13/02/11,23:11,05:55,6.74,
13/02/10,01:56,09:27,7.51,
13/02/10,01:21,01:21,0.0,
13/02/09,01:28,08:05,6.61,
13/02/08,06:36,07:05,0.48,
13/02/08,05:35,05:35,0.0,
13/02/08,05:10,05:10,0.0,
13/02/08,05:05,05:06,0.01,
13/02/08,00:28,04:54,4.43,
13/02/07,08:36,09:00,0.40,
13/02/07,01:46,08:36,6.83,
13/02/06,00:37,08:01,7.4,
13/02/05,07:29,07:41,0.20,
13/02/05,01:45,07:29,5.71,
13/02/04,00:47,08:00,7.23,
13/02/03,01:54,10:26,8.53,
13/02/02,02:46,09:22,6.59,
13/02/01,01:23,08:31,7.13,
13/01/31,07:05,09:01,1.93,
13/01/31,01:54,07:02,5.13,
13/01/30,01:32,08:54,7.35,
13/01/29,01:12,07:34,6.36,
13/01/28,05:57,07:00,1.04,
13/01/28,00:11,05:47,5.61,
13/01/27,01:02,07:50,6.79,
13/01/26,08:56,08:56,0.0,
13/01/26,05:56,08:50,2.89,
13/01/26,01:05,05:44,4.65,
13/01/25,01:35,08:30,6.92,
13/01/24,23:48,07:00,7.2,
13/01/23,00:19,07:00,6.68,
13/01/22,00:17,06:33,6.26,
13/01/21,00:00,06:46,6.75,
13/01/20,23:45,07:54,8.14,
13/01/19,04:00,06:00,2.0,Kari sleep over.
13/01/18,00:49,08:03,7.23,
13/01/17,06:01,06:01,0.0,
13/01/17,05:49,05:49,0.0,
13/01/17,23:31,05:44,6.21,
13/01/16,00:10,06:56,6.76,
13/01/15,07:14,07:16,0.03,
13/01/15,03:50,06:35,2.75,
13/01/15,03:40,03:40,0.0,
13/01/15,22:56,03:34,4.64,
13/01/14,11:00,12:20,1.33,Singapore to London
13/01/14,05:00,07:30,2.5,at Changi
13/01/14,00:00,03:00,3.0,Tokyo to Singapore
13/01/13,02:52,02:52,0.0,
13/01/13,02:13,02:13,0.0,
13/01/13,20:52,02:03,5.18,
13/01/12,19:40,02:32,6.87,
13/01/11,02:09,03:22,1.22,
13/01/11,19:48,01:58,6.16,
13/01/10,19:11,02:18,7.11,
13/01/09,01:30,02:35,1.08,
13/01/09,19:47,01:19,5.53,
13/01/08,19:21,19:37,0.27,
13/01/08,02:12,02:12,0.0,
13/01/08,02:00,02:00,0.0,
13/01/08,19:57,01:56,5.98,
13/01/07,02:24,02:24,0.0,
13/01/07,19:38,02:20,6.69,
13/01/06,16:55,00:15,7.33,
13/01/05,01:18,01:26,0.13,
13/01/05,23:57,01:08,1.17,
13/01/04,18:18,23:47,5.48,
13/01/04,17:04,00:57,7.88,
13/01/03,17:11,01:32,8.34,
13/01/01,18:44,23:30,4.76,travel: tokyo to kusatsu onsen
13/01/01,18:05,02:07,8.02,
12/12/31,17:09,01:24,8.25,
12/12/29,22:02,22:30,0.46,
12/12/29,16:11,22:00,5.81,
12/12/29,18:57,02:09,7.19,
12/12/28,01:16,01:16,0.0,
12/12/28,18:47,01:09,6.36,
12/12/27,01:05,03:03,1.97,
12/12/27,00:04,00:55,0.85,
12/12/26,17:13,21:30,4.29,
12/12/26,17:02,17:02,0.0,
12/12/26,22:04,01:00,2.93,
12/12/25,17:22,21:30,4.14,
12/12/25,18:00,01:17,7.28,
12/12/24,00:43,01:49,1.10,
12/12/24,19:14,00:33,5.31,
12/12/23,21:57,02:44,4.78,
12/12/22,18:07,21:44,3.61,
12/12/21,23:00,23:00,0.0,
12/12/21,22:56,22:56,0.0,
12/12/21,21:24,22:50,1.42,
12/12/21,15:55,21:14,5.32,
12/12/21,01:12,01:12,0.0,
12/12/21,18:19,01:07,6.79,
12/12/20,02:30,02:55,0.41,
12/12/20,01:10,02:20,1.16,
12/12/20,01:00,01:00,0.0,
12/12/19,18:03,21:02,2.97,
12/12/19,15:01,17:50,2.81,
12/12/19,00:08,00:08,0.0,
12/12/19,00:00,00:00,0.0,
12/12/18,23:51,23:51,0.0,
12/12/18,23:40,23:40,0.0,
12/12/18,17:46,23:30,5.73,
12/12/18,23:53,02:10,2.29,
12/12/17,23:20,23:42,0.37,
12/12/17,19:18,23:09,3.85,
12/12/17,18:58,19:08,0.17,
12/12/17,01:38,01:38,0.00,
12/12/17,01:28,01:28,0.0,
12/12/17,23:51,01:26,1.57,
12/12/16,23:36,23:41,0.08,
12/12/16,19:55,23:26,3.51,
12/12/16,04:54,04:54,0.0,
12/12/16,04:09,04:51,0.69,
12/12/16,01:23,03:57,2.56,
12/12/16,00:54,01:06,0.2,
12/12/16,00:32,00:32,0.0,
12/12/16,00:09,00:09,0.0,
12/12/15,23:08,23:08,0.0,
12/12/15,22:57,22:57,0.0,
12/12/15,22:47,22:47,0.0,
12/12/15,19:45,22:38,2.87,
12/12/15,06:38,08:05,1.45,sick
12/12/15,03:40,06:28,2.8,
12/12/15,03:00,03:30,0.5,
12/12/15,01:38,01:38,0.0,
12/12/15,01:24,01:24,0.0,
12/12/15,22:00,01:23,3.38,
12/12/14,21:50,21:50,0.0,
12/12/14,19:49,21:38,1.81,
12/12/14,18:26,19:39,1.21,
12/12/14,02:40,04:10,1.5,
12/12/14,02:09,02:09,0.0,Tokyo
12/12/14,01:42,01:58,0.27,
12/12/14,00:30,01:32,1.03,
12/12/14,23:07,00:20,1.20,
12/12/13,19:49,22:54,3.07,
12/12/13,02:59,03:40,0.68,Singapore stopover
12/12/13,01:43,02:43,1.0,
12/12/12,23:08,23:08,0.0,
12/12/12,20:39,21:50,1.19,
12/12/12,17:36,20:29,2.87,
12/12/12,03:40,05:40,2.0,Frankfurt - Singapore
12/12/11,09:38,09:38,0.0,
12/12/11,04:01,09:28,5.45,going to Japan
12/12/10,01:39,08:01,6.35,
12/12/09,07:07,09:30,2.38,
12/12/09,02:25,06:57,4.52,
12/12/09,02:05,02:05,0.0,
12/12/08,01:12,10:29,9.27,
12/12/07,03:44,06:30,2.76,Fauske
12/12/07,01:38,03:34,1.92,
12/12/06,02:14,08:29,6.25,
12/12/05,06:52,08:35,1.71,
12/12/05,02:00,06:40,4.66,
12/12/04,01:16,08:15,6.98,
12/12/03,05:39,07:45,2.09,
12/12/03,01:22,05:29,4.12,
12/12/02,08:44,09:31,0.77,
12/12/02,02:54,08:34,5.67,
12/12/02,02:41,02:44,0.03,
12/12/01,09:48,10:23,0.58,
12/12/01,01:34,09:45,8.16,
12/12/01,01:15,01:15,0.0,
12/11/30,23:52,07:22,7.50,
12/11/29,02:26,09:11,6.74,
12/11/28,01:01,08:00,6.98,
12/11/27,01:28,08:15,6.78,
12/11/26,01:32,09:27,7.91,
12/11/25,04:58,09:33,4.58,
12/11/25,01:09,04:45,3.59,
12/11/24,09:54,10:48,0.90,
12/11/24,02:11,09:44,7.55,
12/11/23,01:08,08:15,7.12,
12/11/22,01:30,08:00,6.5,
12/11/21,01:55,08:00,6.08,
12/11/20,01:29,08:00,6.51,
12/11/19,09:27,10:58,1.50,
12/11/19,03:35,09:17,5.70,
12/11/18,03:35,11:15,7.66,
12/11/17,02:10,09:17,7.11,
12/11/16,01:22,08:01,6.65,
12/11/15,09:10,09:50,0.66,
12/11/15,08:23,09:06,0.71,
12/11/15,02:39,08:11,5.53,
12/11/14,01:16,08:53,7.61,
12/11/13,05:13,08:00,2.78,
12/11/13,01:37,05:01,3.38,
12/11/12,01:43,08:00,6.28,
12/11/12,01:33,01:33,0.0,
12/11/11,03:25,10:16,6.83,
12/11/10,00:07,09:02,8.92,
12/11/09,01:47,08:00,6.22,
12/11/08,09:12,09:12,0.0,
12/11/08,02:04,09:12,7.12,
12/11/07,00:29,08:00,7.52,
12/11/06,01:16,08:00,6.73,
12/11/05,01:38,08:01,6.38,
12/11/04,05:04,10:09,5.09,
12/11/04,02:12,04:53,2.69,
12/11/03,00:59,08:30,7.53,
12/11/02,17:00,17:30,0.5,
12/11/02,05:51,05:51,0.0,
12/11/02,05:43,05:43,0.0,
12/11/02,00:27,05:25,4.96,
12/11/01,00:52,08:00,7.13,
12/10/31,02:06,08:00,5.91,
12/10/30,01:09,08:01,6.86,
12/10/29,00:30,07:00,6.5,
12/10/28,08:49,08:52,0.05,
12/10/28,02:32,08:39,6.11,
12/10/28,02:22,02:22,0.0,
12/10/27,02:02,10:10,8.13,
12/10/26,01:14,08:00,6.76,
12/10/25,03:04,09:28,6.40,
12/10/24,00:34,07:30,6.93,
12/10/23,01:35,08:30,6.91,
12/10/22,01:36,07:56,6.32,
12/10/21,02:14,09:31,7.28,
12/10/20,01:31,10:20,8.80,
12/10/19,05:55,07:00,1.08,
12/10/19,22:54,05:40,6.75,
12/10/18,01:51,08:09,6.30,
12/10/17,01:07,07:40,6.55,
12/10/16,00:38,07:00,6.36,
12/10/15,00:53,06:54,6.01,
12/10/14,00:27,08:43,8.25,
12/10/13,01:49,09:00,7.17,
12/10/12,01:26,08:15,6.81,
12/10/11,01:28,08:31,7.04,
12/10/10,01:32,08:35,7.05,
12/10/09,02:14,08:35,6.35,
12/10/08,23:42,06:30,6.81,
12/10/07,03:00,10:21,7.34,
12/10/07,02:45,02:50,0.08,
12/10/06,08:50,09:50,1.00,
12/10/06,02:21,08:37,6.26,
12/10/05,06:14,08:35,2.34,
12/10/05,01:20,06:02,4.69,
12/10/04,01:48,08:24,6.61,
12/10/03,01:43,09:30,7.78,
12/10/02,01:56,08:39,6.72,
12/10/01,02:39,07:27,4.79,
12/09/30,08:06,09:36,1.50,
12/09/30,01:05,07:56,6.86,
12/09/29,01:34,09:30,7.93,
12/09/28,02:30,09:44,7.23,
12/09/27,02:07,09:31,7.40,
12/09/26,00:47,07:30,6.71,
12/09/25,05:56,06:30,0.55,
12/09/25,05:05,05:46,0.69,
12/09/25,22:53,04:54,6.01,
12/09/24,13:45,14:10,0.41,
12/09/24,08:32,08:32,0.0,
12/09/24,02:09,08:25,6.25,
12/09/23,09:58,10:18,0.33,
12/09/23,08:15,08:25,0.16,
12/09/23,07:33,07:33,0.0,
12/09/23,02:19,07:22,5.04,
12/09/22,17:46,19:08,1.37,
12/09/22,17:34,17:35,0.01,
12/09/22,01:31,07:45,6.23,
12/09/21,23:37,06:45,7.12,
12/09/20,00:15,06:48,6.55,
12/09/19,23:28,06:31,7.05,
12/09/18,01:20,07:30,6.17,
12/09/17,00:42,07:00,6.29,
12/09/16,08:20,08:45,0.41,
12/09/16,00:45,08:16,7.52,
12/09/15,02:15,10:03,7.80,
12/09/14,06:05,08:00,1.90,
12/09/14,00:09,05:53,5.73,
12/09/13,06:21,06:58,0.61,
12/09/13,00:45,06:10,5.42,
12/09/12,23:27,06:34,7.10,
12/09/11,02:35,09:20,6.75,
12/09/10,00:22,06:30,6.13,
12/09/09,07:25,08:18,0.89,
12/09/09,23:41,07:15,7.56,
12/09/08,09:01,09:01,0.0,
12/09/08,08:29,08:29,0.0,
12/09/08,01:34,08:17,6.71,
12/09/07,06:37,07:36,0.98,
12/09/07,23:05,06:26,7.35,
12/09/06,00:44,06:57,6.22,
12/09/05,05:31,06:30,0.97,
12/09/05,00:04,05:19,5.25,
12/09/04,03:22,06:30,3.13,
12/09/04,23:10,03:12,4.02,
12/09/03,00:13,07:00,6.78,
12/09/02,02:33,10:05,7.51,
12/09/01,07:58,08:00,0.03,
12/09/01,06:38,07:47,1.15,
12/09/01,06:09,06:28,0.30,
12/09/01,02:29,05:59,3.50,
12/09/01,23:12,02:19,3.11,
12/08/31,09:38,09:38,0.0,
12/08/31,02:47,09:28,6.67,
12/08/30,07:21,07:21,0.01,
12/08/30,01:15,07:10,5.92,
12/08/29,02:10,08:18,6.13,
12/08/28,07:55,08:58,1.05,
12/08/28,01:38,07:45,6.11,
12/08/27,00:20,07:32,7.19,
12/08/26,02:08,09:30,7.36,
12/08/25,09:25,09:40,0.25,
12/08/25,05:43,09:20,3.61,
12/08/25,00:57,05:32,4.58,
12/08/24,07:03,07:13,0.16,
12/08/24,06:25,06:55,0.49,
12/08/24,00:42,06:15,5.54,
12/08/23,07:35,07:35,0.0,
12/08/23,01:05,07:26,6.34,
12/08/22,01:21,08:20,6.98,
12/08/21,01:03,08:25,7.36,
12/08/20,01:36,08:00,6.39,
12/08/19,07:12,08:18,1.10,
12/08/19,00:53,07:02,6.14,
12/08/18,09:27,09:27,0.0,
12/08/18,07:34,09:26,1.86,
12/08/18,02:28,07:24,4.92,
12/08/17,01:35,09:00,7.40,
12/08/16,07:13,07:41,0.46,
12/08/16,01:02,07:00,5.97,
12/08/15,00:47,07:01,6.23,
12/08/14,15:35,15:40,0.08,
12/08/14,06:06,07:00,0.90,
12/08/14,00:05,05:55,5.82,
12/08/13,01:23,08:15,6.86,
12/08/12,09:18,09:18,0.0,
12/08/12,07:51,09:09,1.30,
12/08/12,01:35,07:41,6.09,
12/08/11,09:35,09:35,0.0,
12/08/11,08:58,09:24,0.42,
12/08/11,01:15,08:48,7.54,
12/08/10,16:30,16:44,0.23,
12/08/10,07:52,08:02,0.17,
12/08/10,01:33,07:42,6.15,
12/08/09,01:20,08:15,6.91,
12/08/08,01:39,08:39,6.99,
12/08/07,01:35,09:00,7.41,
12/08/06,07:49,08:23,0.55,
12/08/06,01:25,07:38,6.20,
12/08/05,05:22,07:01,1.63,
12/08/05,01:36,05:12,3.60,
12/08/05,01:24,01:24,0.0,
12/08/05,01:21,01:21,0.0,
12/08/05,22:56,01:20,2.4,
12/08/04,15:19,16:31,1.19,
12/08/04,05:46,08:36,2.84,
12/08/04,00:00,05:46,5.76,
12/08/03,08:36,08:56,0.33,
12/08/03,07:56,08:28,0.53,
12/08/03,05:38,07:56,2.3,
12/08/03,00:28,05:38,5.16,
12/08/02,01:06,09:24,8.30,
12/08/01,06:37,09:36,2.98,
12/08/01,01:54,06:33,4.64,
12/08/01,00:29,01:54,1.41,
12/07/31,05:01,09:11,4.16,
12/07/31,01:06,04:57,3.84,
12/07/30,23:47,07:50,8.04,
12/07/29,23:51,07:30,7.65,
12/07/28,10:07,10:09,0.04,
12/07/28,03:22,10:06,6.73,
12/07/27,09:37,09:45,0.13,
12/07/27,05:00,09:36,4.61,
12/07/27,01:06,04:57,3.85,
12/07/26,06:21,06:41,0.32,
12/07/26,06:15,06:20,0.08,
12/07/26,06:07,06:15,0.14,
12/07/26,04:02,06:06,2.07,
12/07/26,01:22,04:02,2.65,
12/07/25,03:13,10:06,6.88,
12/07/24,08:47,10:06,1.31,
12/07/24,01:40,08:47,7.11,
12/07/23,09:41,09:56,0.25,
12/07/23,02:01,09:39,7.63,
12/07/22,09:44,10:11,0.45,
12/07/22,02:19,09:44,7.41,
12/07/21,01:55,10:25,8.49,
12/07/20,06:50,08:52,2.03,
12/07/20,00:55,06:50,5.91,
12/07/19,15:07,16:00,0.87,
12/07/19,14:47,15:07,0.33,
12/07/19,00:38,06:50,6.19,
12/07/18,15:24,15:24,0.0,
12/07/18,15:03,15:23,0.33,
12/07/18,13:41,15:03,1.35,
12/07/18,06:47,06:47,0.0,
12/07/18,03:17,06:45,3.46,After my 400m record
12/07/17,01:15,10:33,9.28,
12/07/16,09:10,10:31,1.35,
12/07/16,01:13,09:12,7.99,
12/07/15,09:30,10:00,0.5,
12/07/15,01:27,08:54,7.45,
12/07/14,08:44,09:21,0.60,
12/07/14,00:06,08:44,8.62,
12/07/13,02:02,08:52,6.83,
12/07/13,08:52,08:52,0.0,
12/07/12,04:20,08:51,4.52,
12/07/12,00:25,04:17,3.86,
12/07/11,09:03,09:03,0.0,
12/07/11,03:04,09:02,5.97,
12/07/11,01:15,02:37,1.35,
12/07/10,09:28,09:37,0.14,
12/07/10,03:59,09:18,5.32,
12/07/10,01:51,03:48,1.95,
12/07/09,07:13,09:15,2.03,
12/07/09,00:09,07:03,6.89,
12/07/08,01:24,09:21,7.95,
12/07/07,00:41,09:07,8.42,
12/07/06,07:10,08:48,1.62,
12/07/06,01:08,07:00,5.87,
12/07/05,08:52,09:50,0.96,
12/07/05,08:36,08:42,0.09,
12/07/05,05:46,08:26,2.66,
12/07/05,01:20,05:36,4.26,
12/07/04,08:38,08:46,0.13,
12/07/04,07:16,08:27,1.18,
12/07/04,00:02,07:06,7.06,
12/07/03,01:18,06:16,4.97,
12/07/02,18:50,19:20,0.5,
12/07/02,08:16,09:06,0.83,
12/07/02,07:16,08:06,0.83,
12/07/02,00:30,07:06,6.59,
12/07/01,06:05,06:05,0.0,
12/07/01,00:09,06:01,5.86,
12/07/01,22:31,00:01,1.5,
12/06/30,01:11,07:10,5.99,
12/06/29,08:33,08:38,0.08,
12/06/29,08:21,08:22,0.01,
12/06/29,00:41,08:11,7.50,
12/06/28,08:01,08:30,0.48,
12/06/28,00:36,07:51,7.26,
12/06/27,00:23,08:45,8.37,
12/06/26,00:20,08:33,8.21,
12/06/25,08:00,08:00,0.0,
12/06/25,00:17,07:55,7.63,
12/06/24,01:33,05:00,3.45,
12/06/23,06:38,08:23,1.75,
12/06/23,05:53,06:28,0.58,
12/06/23,05:14,05:43,0.48,
12/06/23,04:59,05:04,0.08,
12/06/23,01:40,04:48,3.14,
12/06/22,01:03,08:05,7.03,
12/06/21,01:21,08:20,6.98,
12/06/20,01:26,08:20,6.90,
12/06/19,00:15,08:00,7.75,
12/06/18,06:25,07:30,1.07,
12/06/18,01:11,06:15,5.06,
12/06/17,07:18,08:10,0.85,
12/06/17,01:29,07:08,5.65,
12/06/16,07:56,08:30,0.56,
12/06/16,00:49,07:46,6.95,
12/06/15,07:44,08:28,0.72,
12/06/15,07:34,07:34,0.0,
12/06/15,06:11,07:31,1.33,
12/06/15,01:12,06:01,4.80,
12/06/14,00:46,07:35,6.82,
12/06/13,00:42,08:00,7.30,
12/06/12,00:31,08:10,7.65,
12/06/11,00:35,08:00,7.41,
12/06/10,09:09,10:00,0.85,
12/06/10,01:35,08:59,7.40,
12/06/09,01:49,09:13,7.39,
12/06/08,23:05,06:55,7.83,
12/06/07,01:23,08:40,7.27,
12/06/06,04:06,08:00,3.90,
12/06/06,00:45,03:54,3.15,
12/06/05,07:38,08:00,0.36,
12/06/05,00:52,07:26,6.56,
12/06/04,00:41,07:51,7.16,
12/06/03,01:42,09:39,7.94,
12/06/02,09:14,09:14,0.0,
12/06/02,02:06,09:05,6.97,
12/06/01,01:14,08:45,7.51,
12/05/31,00:09,07:42,7.53,
12/05/30,00:34,07:45,7.19,
12/05/30,00:22,00:22,0.0,
12/05/29,23:27,07:00,7.53,
12/05/28,01:52,09:59,8.11,
12/05/27,09:41,10:35,0.90,
12/05/27,03:10,09:31,6.34,
12/05/26,00:23,09:33,9.15,
12/05/25,08:07,08:14,0.11,
12/05/25,07:27,07:57,0.49,
12/05/25,01:58,07:16,5.30,
12/05/24,23:00,06:45,7.75,
12/05/23,15:10,15:30,0.33,
12/05/23,01:05,07:58,6.88,
12/05/22,00:02,07:00,6.97,
12/05/21,23:58,07:00,7.02,
12/05/20,23:47,23:47,0.0,
12/05/20,02:01,09:44,7.72,
12/05/19,01:34,09:31,7.96,
12/05/18,07:45,09:19,1.56,
12/05/18,00:34,07:33,6.98,
12/05/17,09:13,09:13,0.0,
12/05/17,08:56,08:56,0.0,
12/05/17,08:12,08:48,0.59,
12/05/17,01:50,08:00,6.16,
12/05/16,01:58,07:15,5.28,
12/05/16,23:14,01:45,2.51,
12/05/15,05:24,07:10,1.77,
12/05/15,23:00,05:13,6.20,
12/05/14,06:39,06:51,0.19,
12/05/14,22:29,06:29,7.99,
12/05/13,08:45,08:45,0.0,
12/05/13,07:20,07:46,0.42,
12/05/13,05:56,07:10,1.23,
12/05/13,02:38,05:46,3.13,
12/05/13,23:47,02:25,2.63,
12/05/12,00:35,08:20,7.75,
12/05/11,07:54,07:54,0.0,
12/05/11,07:48,07:50,0.04,
12/05/11,06:28,07:37,1.15,
12/05/11,06:10,06:18,0.13,
12/05/11,00:45,05:59,5.22,
12/05/10,22:28,06:45,8.28,
12/05/09,07:25,07:54,0.47,
12/05/09,00:45,07:15,6.50,
12/05/08,22:43,06:45,8.02,
12/05/07,23:58,06:58,7.00,
12/05/06,08:09,08:09,0.0,
12/05/06,00:58,08:08,7.16,
12/05/05,08:28,08:53,0.42,
12/05/05,00:41,08:18,7.60,
12/05/04,05:56,06:54,0.97,
12/05/04,04:18,05:45,1.46,
12/05/04,23:18,04:07,4.82,
12/05/03,23:00,06:49,7.82,
12/05/02,06:34,06:34,0.0,
12/05/02,06:23,06:29,0.09,
12/05/02,06:13,06:13,0.0,
12/05/02,05:16,06:06,0.83,
12/05/02,03:56,05:06,1.15,
12/05/02,02:46,03:46,0.99,
12/05/02,23:03,02:36,3.54,
12/05/01,09:15,10:20,1.07,
12/05/01,02:07,09:05,6.97,
12/04/30,08:38,08:38,0.0,
12/04/30,08:25,08:28,0.04,
12/04/30,07:01,08:15,1.23,
12/04/30,02:10,06:51,4.68,
12/04/29,08:28,09:52,1.39,
12/04/29,06:29,08:18,1.81,
12/04/29,00:28,06:19,5.84,
12/04/28,09:10,09:10,0.0,
12/04/28,02:34,09:05,6.51,
12/04/27,07:43,08:28,0.75,
12/04/27,02:28,07:33,5.07,
12/04/26,00:37,07:45,7.12,
12/04/25,09:11,09:35,0.39,
12/04/25,07:31,09:01,1.49,
12/04/25,02:40,07:21,4.68,
12/04/24,00:32,07:15,6.72,
12/04/23,23:43,07:15,7.52,
12/04/22,06:00,09:26,3.44,
12/04/22,01:20,05:47,4.45,
12/04/21,08:31,09:35,1.05,
12/04/21,01:28,08:18,6.84,
12/04/20,05:32,07:15,1.71,
12/04/20,23:45,05:20,5.57,
12/04/19,00:19,07:15,6.93,
12/04/18,23:50,07:15,7.41,
12/04/17,08:55,09:35,0.66,
12/04/17,08:44,08:51,0.11,
12/04/17,01:22,08:34,7.19,
12/04/16,07:12,07:12,0.0,
12/04/16,01:06,07:10,6.07,
12/04/15,00:01,07:30,7.47,
12/04/14,09:17,09:17,5.55,
12/04/14,08:54,09:07,0.20,
12/04/14,02:18,08:44,6.44,
12/04/13,01:48,08:15,6.45,
12/04/12,00:45,07:40,6.90,
12/04/11,00:24,07:47,7.38,
12/04/10,00:55,08:00,7.08,
12/04/09,10:29,10:29,0.00,
12/04/09,10:18,10:18,0.0,
12/04/09,03:18,10:13,6.91,
12/04/08,01:03,09:10,8.12,
12/04/07,01:01,08:39,7.62,
12/04/06,09:27,09:27,0.0,
12/04/06,01:54,09:22,7.47,
12/04/05,02:07,10:14,8.12,
12/04/04,00:31,08:57,8.42,
12/04/03,09:07,10:01,0.9,
12/04/03,09:00,09:00,0.0,
12/04/03,01:51,09:00,7.14,
12/04/02,01:14,08:45,7.50,
12/04/01,07:03,10:05,3.04,
12/04/01,06:50,06:50,0.0,
12/04/01,00:45,06:36,5.84,
12/03/31,07:25,09:10,1.75,
12/03/31,07:09,07:09,2.77,
12/03/31,06:20,07:00,0.66,
12/03/31,05:33,06:10,0.62,
12/03/31,23:48,05:23,5.58,
12/03/30,23:57,07:27,7.49,
12/03/29,00:06,07:15,7.14,
12/03/28,05:13,06:46,1.54,
12/03/28,23:25,05:03,5.63,
12/03/27,23:56,06:42,6.75,
12/03/26,07:28,08:10,0.70,
12/03/26,01:42,07:17,5.58,
12/03/25,00:25,08:47,7.36,
12/03/24,01:27,09:14,7.78,
12/03/23,00:39,07:02,6.39,
12/03/22,00:47,07:26,6.64,
12/03/21,23:42,07:30,7.80,
12/03/20,00:58,07:43,6.75,
12/03/20,00:48,00:48,0.0,
12/03/19,00:06,06:45,6.64,
12/03/18,10:23,10:25,0.03,
12/03/18,08:09,10:13,2.05,
12/03/18,02:59,07:57,4.97,
12/03/17,07:02,09:30,2.46,
12/03/17,01:15,06:52,5.60,
12/03/16,07:30,07:30,0.0,
12/03/16,00:43,07:29,6.76,
12/03/15,06:36,07:30,0.89,
12/03/15,01:12,06:24,5.18,
12/03/14,06:29,06:51,0.37,
12/03/14,00:25,06:19,5.89,
12/03/13,00:32,07:45,7.21,
12/03/12,06:33,07:00,0.44,
12/03/12,06:01,06:23,0.37,
12/03/12,22:47,05:50,7.05,
12/03/11,07:05,09:28,2.38,
12/03/11,02:23,06:53,4.49,
12/03/10,10:38,10:38,0.0,
12/03/10,08:38,10:34,1.93,
12/03/10,03:28,08:26,4.97,
12/03/09,07:20,07:20,0.0,
12/03/09,04:57,07:08,2.18,
12/03/09,00:14,04:45,4.50,
12/03/08,05:18,07:00,1.69,
12/03/08,04:58,04:58,0.0,
12/03/08,04:33,04:33,0.0,
12/03/08,01:55,04:21,2.43,
12/03/08,22:23,01:41,3.29,
12/03/07,22:07,22:13,0.10,
12/03/07,05:32,07:21,1.80,
12/03/07,00:55,05:20,4.41,
12/03/06,00:54,07:34,6.67,
12/03/05,06:54,08:05,1.18,
12/03/05,01:03,06:42,5.64,
12/03/04,09:46,09:46,0.0,
12/03/04,09:20,09:44,0.39,
12/03/04,02:31,09:10,6.65,
12/03/03,08:03,08:37,0.55,
12/03/03,00:51,07:53,7.03,
12/03/02,00:39,07:32,6.89,
12/03/01,00:48,07:48,7.00,
12/02/29,23:35,06:40,7.07,
12/02/28,06:47,07:45,0.96,
12/02/28,22:44,06:37,7.88,
12/02/27,07:30,07:53,0.38,
12/02/27,00:08,07:16,7.12,
12/02/26,05:08,08:32,3.40,
12/02/25,02:10,09:36,7.42,
12/02/24,01:21,08:10,6.80,
12/02/23,00:55,08:10,7.25,
12/02/22,01:22,08:21,6.99,
12/02/21,08:12,08:34,0.36,
12/02/21,01:14,08:02,6.80,
12/02/20,00:34,08:00,7.42,
12/02/19,02:06,09:57,7.84,
12/02/18,02:25,10:05,7.65,
12/02/17,00:29,08:00,7.51,
12/02/16,00:47,08:10,7.37,
12/02/15,06:47,08:15,1.45,
12/02/15,01:04,06:37,5.54,
12/02/14,00:17,07:50,7.54,
12/02/13,04:02,08:00,3.96,
12/02/13,23:49,03:47,3.96,
12/02/12,09:38,09:38,0.0,
12/02/12,00:58,09:21,8.39,
12/02/11,01:24,10:42,9.30,
12/02/10,08:28,08:28,0.0,
12/02/10,02:04,08:18,6.22,
12/02/09,00:19,08:00,7.67,
12/02/08,00:24,07:45,7.35,
12/02/07,06:51,07:37,0.77,
12/02/07,04:21,06:41,2.33,
12/02/07,04:11,04:11,2.77,
12/02/07,03:46,04:01,0.24,
12/02/07,03:02,03:36,0.55,
12/02/07,02:16,02:52,0.59,
12/02/07,01:05,01:50,0.74,
12/02/07,22:11,00:55,2.73,
12/02/06,21:49,21:49,0.0,
12/02/06,07:54,08:28,0.56,
12/02/06,07:24,07:44,0.32,
12/02/06,06:29,07:14,0.75,
12/02/06,05:25,06:19,0.89,
12/02/06,03:29,05:15,1.77,
12/02/06,01:35,03:19,1.73,
12/02/06,23:16,01:25,2.14,
12/02/05,22:52,22:52,0.0,
12/02/05,22:27,22:50,0.37,
12/02/05,22:17,22:17,2.77,
12/02/05,21:39,22:17,0.62,
12/02/05,20:55,21:29,0.56,
12/02/05,19:59,20:42,0.72,
12/02/05,15:51,16:20,0.49,
12/02/05,14:38,15:41,1.04,
12/02/05,13:26,14:28,1.02,
12/02/05,09:51,09:51,0.0,
12/02/05,09:23,09:23,0.0,
12/02/05,07:57,09:18,1.35,
12/02/05,07:07,07:47,0.66,
12/02/05,05:44,06:57,1.21,
12/02/05,01:00,05:30,4.50,
12/02/04,15:36,17:30,1.89,
12/02/04,10:09,10:17,0.13,
12/02/04,08:56,09:58,1.03,
12/02/04,08:13,08:13,0.0,
12/02/04,01:46,07:52,6.10,
12/02/03,23:06,06:15,7.15,
12/02/02,00:59,07:50,6.84,
12/02/01,00:41,08:40,7.97,
12/01/31,00:03,07:30,7.46,
12/01/30,07:17,07:17,0.0,
12/01/30,23:42,07:15,7.54,
12/01/29,05:10,10:28,5.30,
12/01/29,01:44,05:00,3.25,
12/01/28,09:54,09:54,0.01,
12/01/28,02:46,09:44,6.96,
12/01/27,23:24,07:15,7.84,
12/01/26,01:09,07:38,6.47,
12/01/25,00:22,07:50,7.45,
12/01/24,00:43,08:00,7.28,
12/01/23,00:12,07:30,7.30,
12/01/22,01:40,09:23,7.71,
12/01/21,08:17,09:45,1.46,
12/01/21,01:00,08:07,7.12,
12/01/20,00:42,08:00,7.29,
12/01/19,00:33,07:47,7.23,
12/01/18,00:25,07:45,7.32,
12/01/17,07:35,08:31,0.93,
12/01/17,07:17,07:22,0.06,
12/01/17,01:23,07:07,5.74,
12/01/16,00:57,08:38,7.68,
12/01/15,08:29,09:28,0.97,
12/01/15,01:45,08:19,6.56,
12/01/14,00:33,09:00,8.43,
12/01/13,00:00,07:16,7.27,
12/01/12,23:48,07:15,7.45,
12/01/11,23:45,07:15,7.48,
12/01/10,07:26,07:45,0.30,
12/01/10,01:40,07:16,5.60,
12/01/10,00:49,01:29,0.68,
12/01/09,23:56,07:15,7.31,
12/01/08,09:48,09:48,0.0,
12/01/08,02:11,09:37,7.44,
12/01/07,07:32,09:02,1.48,
12/01/07,00:58,07:22,6.39,
12/01/06,00:48,07:45,6.94,
12/01/05,23:49,07:15,7.42,
12/01/04,23:47,07:15,7.47,
12/01/03,00:16,07:15,6.98,
12/01/02,06:07,07:15,1.12,
12/01/02,00:20,05:57,5.61,
12/01/01,23:58,23:58,0.0,
12/01/01,23:22,23:27,0.08,
12/01/01,10:29,10:29,0.0,
12/01/01,07:25,10:19,2.88,
12/01/01,03:06,07:13,4.10,
11/12/31,09:00,10:05,1.09,
11/12/31,02:39,08:49,6.17,
11/12/30,02:05,09:46,7.68,
11/12/29,03:23,10:34,7.19,
11/12/28,01:39,09:30,7.85,
11/12/27,01:42,09:24,7.70,
11/12/26,01:19,08:41,7.36,
11/12/25,08:45,09:06,0.35,
11/12/25,00:38,08:34,7.94,
11/12/24,07:56,09:19,1.38,
11/12/24,01:31,07:46,6.24,
11/12/23,02:09,10:41,8.51,
11/12/23,01:50,01:50,0.0,
11/12/22,00:52,08:25,7.55,
11/12/21,00:52,07:46,6.90,
11/12/20,02:00,08:45,6.75,
11/12/19,01:09,08:05,6.92,
11/12/18,09:46,10:55,1.13,
11/12/18,02:39,09:36,6.94,
11/12/17,00:56,10:40,9.73,
11/12/16,04:20,09:31,5.18,
11/12/16,00:48,03:24,2.6,
11/12/15,01:08,08:05,6.94,
11/12/14,01:15,08:58,7.71,
11/12/13,01:26,08:15,6.81,
11/12/12,00:45,07:32,6.79,
11/12/11,00:51,08:44,7.87,
11/12/10,07:40,08:37,0.94,
11/12/10,01:04,07:30,6.43,
11/12/09,00:00,08:31,8.52,
11/12/08,05:38,08:44,3.10,
11/12/08,01:15,05:26,4.17,
11/12/07,00:53,09:22,8.48,
11/12/06,08:23,08:40,0.27,
11/12/06,01:16,08:13,6.94,
11/12/05,00:28,08:31,8.05,
11/12/04,00:45,09:11,8.43,
11/12/03,12:11,12:21,0.16,
11/12/03,00:12,05:00,4.80,
11/12/02,04:29,08:43,4.22,
11/12/02,00:40,04:16,3.59,
11/12/01,23:45,07:32,7.77,
11/11/30,04:54,08:00,3.08,
11/11/30,00:13,04:44,4.51,
11/11/29,23:39,08:00,8.35,
11/11/28,23:13,08:00,8.77,
11/11/27,09:00,09:00,0.0,
11/11/27,08:45,08:59,0.23,
11/11/27,06:58,08:35,1.60,
11/11/27,04:13,06:45,2.54,
11/11/26,17:01,17:01,2.77,
11/11/26,16:36,16:56,0.33,
11/11/26,01:28,08:00,6.52,
11/11/25,00:16,07:24,7.13,
11/11/24,00:13,07:49,7.60,
11/11/23,00:11,07:51,7.65,
11/11/22,00:04,08:10,8.09,
11/11/21,00:32,07:57,7.41,
11/11/20,00:35,08:15,7.66,
11/11/19,01:53,09:08,7.24,
11/11/18,23:41,07:36,7.92,
11/11/17,00:31,08:00,7.47,
11/11/16,00:22,08:00,7.63,
11/11/15,00:51,08:11,7.32,
11/11/14,23:56,08:05,8.14,
11/11/13,02:21,09:21,7.00,
11/11/12,00:13,09:33,9.33,
11/11/11,07:21,07:21,0.0,
11/11/11,01:18,07:08,5.83,
11/11/10,00:34,08:15,7.68,
11/11/09,01:26,08:16,6.83,
11/11/08,00:02,08:01,7.98,
11/11/07,23:50,07:15,7.40,
11/11/06,23:35,08:16,8.68,
11/11/05,09:33,09:33,0.0,
11/11/05,01:45,09:19,7.56,
11/11/04,00:30,07:30,7.00,
11/11/03,08:00,08:17,0.27,
11/11/03,01:36,07:50,6.23,
11/11/02,00:32,07:39,7.12,
11/11/01,07:38,07:38,0.0,
11/11/01,00:24,07:35,7.18,
11/10/31,00:25,08:01,7.60,
11/10/30,08:29,08:29,0.0,
11/10/30,02:03,08:18,7.24,
11/10/29,01:04,09:49,8.74,
11/10/28,01:23,08:28,7.08,
11/10/27,08:17,08:17,0.0,
11/10/27,01:40,08:13,6.54,
11/10/26,06:53,06:53,0.0,
11/10/26,04:22,06:44,2.37,
11/10/26,23:14,04:07,4.89,
11/10/25,00:32,06:32,6.0,
11/10/24,01:09,07:09,6.0,
11/10/23,05:24,09:40,4.27,
11/10/23,00:31,05:14,4.70,
11/10/22,06:28,08:57,2.48,
11/10/22,01:21,06:18,4.94,
11/10/21,00:30,07:40,7.16,
11/10/20,07:54,07:54,0.0,
11/10/20,00:13,07:48,7.58,
11/10/19,00:21,07:30,7.14,
11/10/18,03:37,08:00,4.38,
11/10/18,00:28,03:25,2.95,
11/10/17,00:36,07:26,6.84,
11/10/16,08:51,08:51,0.0,
11/10/16,02:22,08:45,6.38,
11/10/15,08:40,09:09,0.47,
11/10/15,00:13,08:26,8.21,
11/10/14,08:42,08:42,0.0,
11/10/14,02:13,08:35,6.36,
11/10/13,02:11,08:37,6.44,
11/10/12,01:29,08:15,6.76,
11/10/11,02:13,08:15,6.02,
11/10/10,00:59,08:15,7.27,
11/10/09,02:15,09:21,7.10,
11/10/08,08:12,08:12,0.0,
11/10/08,23:46,08:05,8.31,
11/10/07,01:46,09:34,7.80,
11/10/06,05:29,08:15,2.76,
11/10/06,03:36,03:36,0.00,
11/10/06,00:18,03:26,3.12,
11/10/05,09:10,09:56,0.76,
11/10/05,02:10,08:59,6.82,
11/10/04,01:16,08:05,6.81,
11/10/03,23:25,07:40,8.25,
11/10/02,04:16,06:16,2.0,
11/10/01,01:32,09:00,7.46,
11/09/30,01:41,09:10,7.46,
11/09/29,09:45,10:10,0.41,
11/09/29,01:42,09:39,7.95,
11/09/28,01:48,08:15,6.44,
11/09/27,01:30,08:15,6.73,
11/09/26,00:10,07:45,7.59,
11/09/25,02:21,09:40,7.32,
11/09/24,01:56,09:45,7.81,
11/09/23,08:35,09:53,1.31,
11/09/23,01:17,08:24,7.12,
11/09/22,01:02,09:14,8.20,
11/09/21,01:08,08:00,6.85,
11/09/20,22:57,07:16,8.32,
11/09/19,00:14,07:53,7.65,
11/09/18,11:27,11:37,0.17,
11/09/18,04:04,11:12,7.13,
11/09/17,09:39,09:42,0.05,
11/09/17,02:47,09:28,6.69,
11/09/16,01:54,08:40,6.76,
11/09/15,01:40,09:10,7.49,
11/09/14,00:29,07:20,6.85,
11/09/13,01:43,08:15,6.52,
11/09/12,02:22,08:12,5.83,
11/09/11,23:49,08:30,8.67,
11/09/10,10:59,11:12,0.21,
11/09/10,03:00,10:49,7.80,
11/09/09,03:24,10:00,6.59,
11/09/08,02:08,09:00,6.87,
11/09/07,02:11,08:15,6.06,
11/09/06,01:53,08:15,6.36,
11/09/05,03:00,08:15,5.24,
11/09/04,03:06,12:20,9.24,
11/09/03,01:56,08:40,6.73,
11/09/02,01:41,10:48,9.11,
11/09/01,08:34,09:11,0.63,
11/09/01,01:32,08:23,6.84,
11/08/31,02:19,08:09,5.83,
11/08/30,02:09,08:15,6.10,
11/08/29,01:33,08:14,6.68,
11/08/28,02:51,10:42,7.85,
11/08/27,01:50,09:56,8.09,
11/08/26,01:51,09:52,8.02,
11/08/25,03:07,08:57,5.83,
11/08/24,01:05,07:43,6.62,
11/08/23,07:22,07:31,0.16,
11/08/23,02:24,07:11,4.79,
11/08/22,01:08,07:20,6.19,
11/08/21,10:10,11:18,1.13,
11/08/21,01:43,10:00,8.28,
11/08/20,02:07,09:00,6.87,
11/08/19,02:47,07:30,4.71,
11/08/19,01:17,02:37,1.32,
11/08/18,02:31,09:00,6.47,
11/08/17,08:15,09:15,1.0,
11/08/17,01:50,08:00,6.15,
11/08/16,01:13,08:15,7.02,
11/08/15,00:30,07:04,6.56,
11/08/14,09:15,12:18,3.04,
11/08/14,02:22,09:03,6.68,
11/08/13,02:34,10:05,7.51,
11/08/12,02:13,09:22,7.14,
11/08/11,09:47,10:08,0.34,
11/08/11,03:00,09:37,6.61,
11/08/10,00:46,08:15,7.48,
11/08/09,01:15,08:03,6.80,
11/08/08,00:46,08:15,7.48,
11/08/07,10:12,10:12,0.0,
11/08/07,09:46,10:07,0.35,
11/08/07,09:09,09:36,0.44,
11/08/07,02:03,08:59,6.93,
11/08/06,01:08,08:52,7.73,
11/08/05,08:07,09:55,1.78,
11/08/05,02:06,07:57,5.85,
11/08/04,09:16,10:01,0.75,
11/08/04,03:12,09:06,5.90,
11/08/03,01:28,08:15,6.77,
11/08/02,01:38,08:16,6.62,
11/08/01,02:12,08:30,6.30,
11/07/31,08:59,09:05,0.10,
11/07/31,07:09,08:49,1.67,
11/07/31,05:27,06:58,1.52,
11/07/31,00:09,05:16,5.12,
11/07/30,02:19,10:30,8.19,
11/07/29,01:24,10:50,9.42,
11/07/28,09:36,09:43,0.11,
11/07/28,02:42,09:26,6.73,
11/07/27,02:15,08:14,5.97,
11/07/26,01:25,08:15,6.82,
11/07/25,02:14,08:15,6.01,
11/07/24,03:00,11:00,8.00,
11/07/24,02:48,02:48,0.0,
11/07/23,04:24,11:10,6.76,
11/07/22,01:51,09:35,7.72,
11/07/21,02:17,09:16,6.98,
11/07/20,01:32,08:09,6.61,
11/07/19,02:02,08:15,6.21,
11/07/18,06:23,08:15,1.85,
11/07/18,23:58,06:11,6.22,
11/07/17,02:18,10:46,8.46,
11/07/16,02:26,09:30,7.05,
11/07/15,09:19,09:19,0.0,
11/07/15,02:01,09:12,7.18,
11/07/14,01:16,10:07,8.84,
11/07/13,02:49,08:15,5.42,
11/07/12,17:33,17:53,0.33,
11/07/12,02:24,08:51,6.44,
11/07/11,01:57,08:15,6.29,
11/07/10,09:41,09:41,0.0,
11/07/10,02:42,09:24,6.69,
11/07/09,02:41,10:54,8.20,
11/07/08,08:39,10:39,2.01,
11/07/08,08:22,08:29,0.11,
11/07/08,05:34,08:12,2.63,
11/07/08,01:50,05:13,3.38,
11/07/07,09:03,09:07,0.05,
11/07/07,02:09,08:53,6.72,
11/07/06,00:20,08:15,7.90,
11/07/05,02:12,08:15,6.04,
11/07/04,01:32,08:15,6.71,
11/07/03,03:11,09:53,6.69,
11/07/02,01:14,08:50,7.59,
11/07/01,09:04,10:17,1.21,
11/07/01,08:54,08:54,0.0,
11/07/01,02:25,08:45,6.33,
11/07/01,02:01,02:10,0.15,
11/06/30,08:44,09:00,0.25,
11/06/30,01:03,08:34,7.51,
11/06/29,06:52,07:40,0.80,
11/06/29,00:06,06:40,6.55,
11/06/28,01:35,09:00,7.41,
11/06/27,01:10,08:15,7.08,
11/06/26,19:15,19:50,0.58,
11/06/26,09:30,09:43,0.22,
11/06/26,09:05,09:19,0.24,
11/06/26,08:37,08:55,0.29,
11/06/26,02:41,08:27,5.75,
11/06/25,02:06,10:12,8.09,
11/06/24,00:34,08:00,7.42,
11/06/23,03:12,08:15,5.04,
11/06/23,00:48,03:00,2.20,
11/06/22,00:52,08:15,7.37,
11/06/21,01:09,08:15,7.09,
11/06/20,01:26,08:15,6.81,
11/06/19,10:25,10:50,0.41,
11/06/19,02:16,10:22,8.09,
11/06/18,00:14,09:15,9.00,
11/06/17,01:17,08:15,6.95,
11/06/16,01:49,08:50,7.01,
11/06/15,00:45,07:30,6.75,
11/06/14,01:54,08:30,6.59,
11/06/13,01:53,10:38,8.74,
11/06/12,10:25,10:44,0.30,
11/06/12,07:51,10:15,2.39,
11/06/12,03:38,07:39,4.01,
11/06/11,01:00,09:00,8.00,
11/06/10,01:17,08:30,7.22,
11/06/09,00:36,08:00,7.39,
11/06/08,00:19,08:15,7.93,
11/06/07,01:28,08:15,6.77,
11/06/06,08:36,11:17,2.69,
11/06/06,02:24,08:15,5.84,
11/06/05,08:50,09:00,0.16,
11/06/05,01:00,08:46,7.77,
11/06/04,09:19,09:19,0.0,
11/06/04,01:00,09:15,8.23,
11/06/03,09:10,09:30,0.33,
11/06/03,08:47,09:06,0.31,
11/06/03,06:33,08:45,2.19,
11/06/03,01:22,06:23,5.01,
11/06/02,01:07,09:26,8.31,
11/06/01,07:40,07:50,0.16,
11/06/01,01:21,07:25,6.06,
11/05/31,01:12,08:15,7.05,
11/05/30,00:43,08:00,7.28,
11/05/29,02:39,10:44,8.09,
11/05/28,02:14,10:07,7.87,
11/05/27,09:20,09:33,0.21,
11/05/27,07:47,09:15,1.45,
11/05/27,02:08,07:36,5.45,
11/05/26,17:59,18:12,0.22,
11/05/26,01:38,08:15,6.61,
11/05/25,01:20,08:15,6.90,
11/05/24,02:03,07:50,5.78,
11/05/23,00:26,08:00,7.56,
11/05/22,09:36,09:40,0.06,
11/05/22,02:13,09:26,7.22,
11/05/21,01:52,09:53,8.02,
11/05/20,08:50,09:35,0.75,
11/05/20,01:35,08:40,7.07,
11/05/19,01:19,08:15,6.93,
11/05/18,07:37,08:00,0.38,
11/05/18,00:57,07:10,6.21,
11/05/17,09:13,09:13,0.0,
11/05/17,02:34,08:59,6.41,
11/05/16,09:30,10:20,0.83,
11/05/16,08:50,09:15,0.41,
11/05/16,02:38,08:39,6.01,
11/05/15,08:15,08:45,0.5,
11/05/15,01:28,08:11,6.71,
11/05/14,03:22,09:17,5.91,
11/05/07,01:39,10:17,8.63,
11/04/27,01:14,07:24,6.15,
11/04/24,03:38,09:24,5.77,
11/04/19,00:46,08:17,7.50,
11/04/11,02:26,08:10,5.74,
11/04/06,01:37,08:03,6.43,
11/03/30,01:31,07:13,5.70,
11/03/24,01:41,08:00,6.31,
11/03/18,18:04,18:14,0.16,
11/03/11,01:28,08:08,6.65,
11/03/03,02:08,06:57,4.81,
11/02/21,00:14,07:29,7.24,
11/02/15,00:36,07:43,7.11,
11/02/07,00:08,07:25,7.28,
11/01/31,20:36,23:53,3.29,
11/01/22,07:13,09:03,1.83,
11/01/15,01:32,08:44,7.20,
11/01/06,23:38,08:08,8.50,
10/12/30,01:39,08:26,6.78,
10/12/22,03:19,05:52,2.55,
10/12/15,02:16,05:36,3.33,
10/12/09,04:30,06:37,2.10,
10/12/04,01:01,06:58,5.94,
10/11/29,02:02,08:11,6.15,
10/11/19,00:45,07:22,6.60,
10/11/11,00:44,07:52,7.14,
10/11/02,01:31,08:35,7.07,
10/10/24,09:36,10:42,1.09,
10/10/19,01:19,08:13,6.89,
